<?xml version="1.0" encoding="utf-8"?>
<!DOCTYPE eagle SYSTEM "eagle.dtd">
<eagle version="9.4.0">
<drawing>
<settings>
<setting alwaysvectorfont="no"/>
<setting verticaltext="up"/>
</settings>
<grid distance="0.0125" unitdist="inch" unit="inch" style="dots" multiple="1" display="yes" altdistance="0.005" altunitdist="inch" altunit="inch"/>
<layers>
<layer number="1" name="Top" color="47" fill="1" visible="yes" active="yes"/>
<layer number="2" name="Route2" color="1" fill="3" visible="no" active="no"/>
<layer number="3" name="Route3" color="4" fill="3" visible="no" active="no"/>
<layer number="4" name="Route4" color="1" fill="4" visible="no" active="no"/>
<layer number="5" name="Route5" color="4" fill="4" visible="no" active="no"/>
<layer number="6" name="Route6" color="1" fill="8" visible="no" active="no"/>
<layer number="7" name="Route7" color="4" fill="8" visible="no" active="no"/>
<layer number="8" name="Route8" color="1" fill="2" visible="no" active="no"/>
<layer number="9" name="Route9" color="4" fill="2" visible="no" active="no"/>
<layer number="10" name="Route10" color="1" fill="7" visible="no" active="no"/>
<layer number="11" name="Route11" color="4" fill="7" visible="no" active="no"/>
<layer number="12" name="Route12" color="1" fill="5" visible="no" active="no"/>
<layer number="13" name="Route13" color="4" fill="5" visible="no" active="no"/>
<layer number="14" name="Route14" color="1" fill="6" visible="no" active="no"/>
<layer number="15" name="Route15" color="4" fill="6" visible="no" active="no"/>
<layer number="16" name="Bottom" color="1" fill="1" visible="yes" active="yes"/>
<layer number="17" name="Pads" color="2" fill="1" visible="yes" active="yes"/>
<layer number="18" name="Vias" color="2" fill="1" visible="yes" active="yes"/>
<layer number="19" name="Unrouted" color="6" fill="1" visible="yes" active="yes"/>
<layer number="20" name="Dimension" color="24" fill="1" visible="yes" active="yes"/>
<layer number="21" name="tPlace" color="7" fill="1" visible="yes" active="yes"/>
<layer number="22" name="bPlace" color="7" fill="1" visible="yes" active="yes"/>
<layer number="23" name="tOrigins" color="15" fill="1" visible="yes" active="yes"/>
<layer number="24" name="bOrigins" color="15" fill="1" visible="yes" active="yes"/>
<layer number="25" name="tNames" color="7" fill="1" visible="yes" active="yes"/>
<layer number="26" name="bNames" color="7" fill="1" visible="yes" active="yes"/>
<layer number="27" name="tValues" color="7" fill="1" visible="yes" active="yes"/>
<layer number="28" name="bValues" color="7" fill="1" visible="no" active="yes"/>
<layer number="29" name="tStop" color="7" fill="3" visible="no" active="yes"/>
<layer number="30" name="bStop" color="7" fill="6" visible="no" active="yes"/>
<layer number="31" name="tCream" color="7" fill="4" visible="no" active="yes"/>
<layer number="32" name="bCream" color="7" fill="5" visible="no" active="yes"/>
<layer number="33" name="tFinish" color="6" fill="3" visible="no" active="yes"/>
<layer number="34" name="bFinish" color="6" fill="6" visible="no" active="yes"/>
<layer number="35" name="tGlue" color="7" fill="4" visible="no" active="yes"/>
<layer number="36" name="bGlue" color="7" fill="5" visible="no" active="yes"/>
<layer number="37" name="tTest" color="7" fill="1" visible="no" active="yes"/>
<layer number="38" name="bTest" color="7" fill="1" visible="no" active="yes"/>
<layer number="39" name="tKeepout" color="4" fill="11" visible="yes" active="yes"/>
<layer number="40" name="bKeepout" color="1" fill="11" visible="yes" active="yes"/>
<layer number="41" name="tRestrict" color="4" fill="10" visible="yes" active="yes"/>
<layer number="42" name="bRestrict" color="1" fill="10" visible="yes" active="yes"/>
<layer number="43" name="vRestrict" color="2" fill="10" visible="no" active="yes"/>
<layer number="44" name="Drills" color="7" fill="1" visible="no" active="yes"/>
<layer number="45" name="Holes" color="7" fill="1" visible="yes" active="yes"/>
<layer number="46" name="Milling" color="3" fill="1" visible="no" active="yes"/>
<layer number="47" name="Measures" color="7" fill="1" visible="no" active="yes"/>
<layer number="48" name="Document" color="7" fill="1" visible="no" active="yes"/>
<layer number="49" name="Reference" color="7" fill="1" visible="no" active="yes"/>
<layer number="50" name="dxf" color="7" fill="1" visible="no" active="no"/>
<layer number="51" name="tDocu" color="7" fill="1" visible="yes" active="yes"/>
<layer number="52" name="bDocu" color="7" fill="1" visible="yes" active="yes"/>
<layer number="53" name="tGND_GNDA" color="7" fill="9" visible="no" active="no"/>
<layer number="54" name="bGND_GNDA" color="1" fill="9" visible="no" active="no"/>
<layer number="56" name="wert" color="7" fill="1" visible="no" active="no"/>
<layer number="57" name="tCAD" color="7" fill="1" visible="no" active="no"/>
<layer number="59" name="tCarbon" color="7" fill="1" visible="no" active="no"/>
<layer number="60" name="bCarbon" color="7" fill="1" visible="no" active="no"/>
<layer number="88" name="SimResults" color="9" fill="1" visible="no" active="no"/>
<layer number="89" name="SimProbes" color="9" fill="1" visible="no" active="no"/>
<layer number="90" name="Modules" color="5" fill="1" visible="no" active="no"/>
<layer number="91" name="Nets" color="2" fill="1" visible="no" active="no"/>
<layer number="92" name="Busses" color="1" fill="1" visible="no" active="no"/>
<layer number="93" name="Pins" color="2" fill="1" visible="no" active="no"/>
<layer number="94" name="Symbols" color="4" fill="1" visible="no" active="no"/>
<layer number="95" name="Names" color="7" fill="1" visible="no" active="no"/>
<layer number="96" name="Values" color="7" fill="1" visible="no" active="no"/>
<layer number="97" name="Info" color="7" fill="1" visible="no" active="no"/>
<layer number="98" name="Guide" color="6" fill="1" visible="no" active="no"/>
<layer number="99" name="SpiceOrder" color="7" fill="1" visible="no" active="no"/>
<layer number="100" name="Muster" color="7" fill="1" visible="no" active="no"/>
<layer number="101" name="Patch_Top" color="12" fill="4" visible="no" active="yes"/>
<layer number="102" name="Vscore" color="7" fill="1" visible="no" active="yes"/>
<layer number="103" name="tMap" color="7" fill="1" visible="no" active="yes"/>
<layer number="104" name="Name" color="16" fill="1" visible="no" active="yes"/>
<layer number="105" name="tPlate" color="7" fill="1" visible="no" active="yes"/>
<layer number="106" name="bPlate" color="7" fill="1" visible="no" active="yes"/>
<layer number="107" name="Crop" color="7" fill="1" visible="no" active="yes"/>
<layer number="108" name="tplace-old" color="10" fill="1" visible="no" active="yes"/>
<layer number="109" name="ref-old" color="11" fill="1" visible="no" active="yes"/>
<layer number="110" name="fp0" color="7" fill="1" visible="no" active="yes"/>
<layer number="111" name="LPC17xx" color="7" fill="1" visible="no" active="yes"/>
<layer number="112" name="tSilk" color="7" fill="1" visible="no" active="yes"/>
<layer number="113" name="IDFDebug" color="7" fill="1" visible="no" active="yes"/>
<layer number="114" name="Badge_Outline" color="7" fill="1" visible="no" active="yes"/>
<layer number="115" name="ReferenceISLANDS" color="7" fill="1" visible="no" active="yes"/>
<layer number="116" name="Patch_BOT" color="9" fill="4" visible="no" active="yes"/>
<layer number="118" name="Rect_Pads" color="7" fill="1" visible="no" active="yes"/>
<layer number="121" name="_tsilk" color="7" fill="1" visible="no" active="yes"/>
<layer number="122" name="_bsilk" color="7" fill="1" visible="no" active="yes"/>
<layer number="123" name="tTestmark" color="7" fill="1" visible="no" active="yes"/>
<layer number="124" name="bTestmark" color="7" fill="1" visible="no" active="yes"/>
<layer number="125" name="_tNames" color="7" fill="1" visible="no" active="yes"/>
<layer number="126" name="_bNames" color="7" fill="1" visible="no" active="yes"/>
<layer number="127" name="_tValues" color="7" fill="1" visible="no" active="yes"/>
<layer number="128" name="_bValues" color="7" fill="1" visible="no" active="yes"/>
<layer number="129" name="Mask" color="7" fill="1" visible="no" active="yes"/>
<layer number="131" name="tAdjust" color="7" fill="1" visible="no" active="yes"/>
<layer number="132" name="bAdjust" color="7" fill="1" visible="no" active="yes"/>
<layer number="144" name="Drill_legend" color="7" fill="1" visible="no" active="yes"/>
<layer number="150" name="Notes" color="7" fill="1" visible="no" active="yes"/>
<layer number="151" name="HeatSink" color="7" fill="1" visible="no" active="yes"/>
<layer number="152" name="_bDocu" color="7" fill="1" visible="no" active="yes"/>
<layer number="153" name="FabDoc1" color="7" fill="1" visible="no" active="yes"/>
<layer number="154" name="FabDoc2" color="7" fill="1" visible="no" active="yes"/>
<layer number="155" name="FabDoc3" color="7" fill="1" visible="no" active="yes"/>
<layer number="199" name="Contour" color="7" fill="1" visible="no" active="yes"/>
<layer number="200" name="200bmp" color="1" fill="10" visible="no" active="yes"/>
<layer number="201" name="201bmp" color="2" fill="10" visible="no" active="yes"/>
<layer number="202" name="202bmp" color="3" fill="10" visible="no" active="yes"/>
<layer number="203" name="203bmp" color="4" fill="10" visible="no" active="yes"/>
<layer number="204" name="204bmp" color="5" fill="10" visible="no" active="yes"/>
<layer number="205" name="205bmp" color="6" fill="10" visible="no" active="yes"/>
<layer number="206" name="206bmp" color="7" fill="10" visible="no" active="yes"/>
<layer number="207" name="207bmp" color="8" fill="10" visible="no" active="yes"/>
<layer number="208" name="208bmp" color="9" fill="10" visible="no" active="yes"/>
<layer number="209" name="209bmp" color="7" fill="1" visible="no" active="yes"/>
<layer number="210" name="210bmp" color="7" fill="1" visible="no" active="yes"/>
<layer number="211" name="211bmp" color="7" fill="1" visible="no" active="yes"/>
<layer number="212" name="212bmp" color="7" fill="1" visible="no" active="yes"/>
<layer number="213" name="213bmp" color="7" fill="1" visible="no" active="yes"/>
<layer number="214" name="214bmp" color="7" fill="1" visible="no" active="yes"/>
<layer number="215" name="215bmp" color="7" fill="1" visible="no" active="yes"/>
<layer number="216" name="216bmp" color="7" fill="1" visible="no" active="yes"/>
<layer number="217" name="217bmp" color="18" fill="1" visible="no" active="no"/>
<layer number="218" name="218bmp" color="19" fill="1" visible="no" active="no"/>
<layer number="219" name="219bmp" color="20" fill="1" visible="no" active="no"/>
<layer number="220" name="220bmp" color="21" fill="1" visible="no" active="no"/>
<layer number="221" name="221bmp" color="22" fill="1" visible="no" active="no"/>
<layer number="222" name="222bmp" color="23" fill="1" visible="no" active="no"/>
<layer number="223" name="223bmp" color="24" fill="1" visible="no" active="no"/>
<layer number="224" name="224bmp" color="25" fill="1" visible="no" active="no"/>
<layer number="225" name="225bmp" color="7" fill="1" visible="no" active="yes"/>
<layer number="226" name="226bmp" color="7" fill="1" visible="no" active="yes"/>
<layer number="227" name="227bmp" color="7" fill="1" visible="no" active="yes"/>
<layer number="228" name="228bmp" color="7" fill="1" visible="no" active="yes"/>
<layer number="229" name="229bmp" color="7" fill="1" visible="no" active="yes"/>
<layer number="230" name="230bmp" color="7" fill="1" visible="no" active="yes"/>
<layer number="231" name="231bmp" color="7" fill="1" visible="no" active="yes"/>
<layer number="232" name="Eagle3D_PG2" color="7" fill="1" visible="no" active="yes"/>
<layer number="233" name="Eagle3D_PG3" color="7" fill="1" visible="no" active="yes"/>
<layer number="248" name="Housing" color="7" fill="1" visible="no" active="yes"/>
<layer number="249" name="Edge" color="7" fill="1" visible="no" active="yes"/>
<layer number="250" name="Descript" color="3" fill="1" visible="no" active="no"/>
<layer number="251" name="SMDround" color="12" fill="11" visible="no" active="no"/>
<layer number="254" name="cooling" color="7" fill="1" visible="no" active="yes"/>
<layer number="255" name="routoute" color="7" fill="1" visible="no" active="yes"/>
</layers>
<board>
<plain>
<wire x1="1.905" y1="20.955" x2="39.37" y2="20.32" width="0.1524" layer="20" curve="-180"/>
<wire x1="39.37" y1="20.32" x2="1.905" y2="19.685" width="0.1524" layer="20" curve="-180"/>
<wire x1="1.905" y1="20.955" x2="1.905" y2="19.685" width="0.1524" layer="20" curve="-180"/>
<text x="27.6225" y="3.175" size="0.635" layer="25" font="vector" rot="R90">GND</text>
<text x="25.0825" y="3.81" size="0.635" layer="25" font="vector" rot="R90">RX</text>
<text x="22.5425" y="3.81" size="0.635" layer="25" font="vector" rot="R90">TX</text>
<text x="20.0025" y="3.4925" size="0.635" layer="25" font="vector" rot="R90">SCL</text>
<text x="17.4625" y="2.8575" size="0.635" layer="25" font="vector" rot="R90">PIN1</text>
<text x="14.9225" y="2.8575" size="0.635" layer="25" font="vector" rot="R90">PIN0</text>
<text x="12.3825" y="3.4925" size="0.3048" layer="25" font="vector" rot="R90">VBATT</text>
<text x="12.3825" y="35.8775" size="0.3048" layer="25" font="vector" rot="R90">VREG</text>
<text x="14.9225" y="35.8775" size="0.635" layer="25" font="vector" rot="R90">INT0</text>
<text x="17.4625" y="35.8775" size="0.635" layer="25" font="vector" rot="R90">INT1</text>
<text x="20.0025" y="35.8775" size="0.635" layer="25" font="vector" rot="R90">SDA</text>
<text x="22.5425" y="35.8775" size="0.635" layer="25" font="vector" rot="R90">QOWI</text>
<text x="25.0825" y="35.8775" size="0.635" layer="25" font="vector" rot="R90">WOQI</text>
<text x="27.6225" y="35.8775" size="0.635" layer="25" font="vector" rot="R90">CLK</text>
<text x="30.1625" y="35.8775" size="0.635" layer="25" font="vector" rot="R90">SS</text>
</plain>
<libraries>
<library name="SparkFun-Aesthetics" urn="urn:adsk.eagle:library:507">
<description>&lt;h3&gt;SparkFun Aesthetics&lt;/h3&gt;
This library contiains non-functional items such as logos, build/ordering notes, frame blocks, etc. 
&lt;br&gt;
&lt;br&gt;
We've spent an enormous amount of time creating and checking these footprints and parts, but it is &lt;b&gt; the end user's responsibility&lt;/b&gt; to ensure correctness and suitablity for a given componet or application. 
&lt;br&gt;
&lt;br&gt;If you enjoy using this library, please buy one of our products at &lt;a href=" www.sparkfun.com"&gt;SparkFun.com&lt;/a&gt;.
&lt;br&gt;
&lt;br&gt;
&lt;b&gt;Licensing:&lt;/b&gt; Creative Commons ShareAlike 4.0 International - https://creativecommons.org/licenses/by-sa/4.0/ 
&lt;br&gt;
&lt;br&gt;
You are welcome to use this library for commercial purposes. For attribution, we ask that when you begin to sell your device using our footprint, you email us with a link to the product being sold. We want bragging rights that we helped (in a very small part) to create your 8th world wonder. We would like the opportunity to feature your device on our homepage.</description>
<packages>
<package name="DUMMY" urn="urn:adsk.eagle:footprint:37006/1" library_version="1">
<description>&lt;h3&gt;Dummy Footprint&lt;/h3&gt;
&lt;p&gt;NOTHING HERE!!! For when you want a symbol with no package as an option against symbols with a package.&lt;/p&gt;

&lt;p&gt;Devices using:
&lt;ul&gt;&lt;li&gt;BADGERHACK_LOGO&lt;/li&gt;
&lt;li&gt;FRAME-LETTER&lt;/li&gt;&lt;/ul&gt;&lt;/p&gt;</description>
</package>
<package name="OSHW-LOGO-L" urn="urn:adsk.eagle:footprint:37011/1" library_version="1">
<description>&lt;h3&gt;Open-Source Hardware (OSHW) Logo - Large - Silkscreen&lt;/h3&gt;
&lt;p&gt;Silkscreen logo for open-source hardware designs.&lt;/p&gt;
&lt;p&gt;Devices using:
&lt;ul&gt;&lt;li&gt;OSHW_LOGO&lt;/li&gt;&lt;/ul&gt;&lt;/p&gt;</description>
<polygon width="0.15" layer="21">
<vertex x="0.9209" y="-2.2231" curve="9.497479"/>
<vertex x="1.2751" y="-2.0407"/>
<vertex x="2.1548" y="-2.758"/>
<vertex x="2.758" y="-2.1548"/>
<vertex x="2.0407" y="-1.2751" curve="18.998791"/>
<vertex x="2.3446" y="-0.5413"/>
<vertex x="3.4739" y="-0.4265"/>
<vertex x="3.4739" y="0.4265"/>
<vertex x="2.3446" y="0.5413" curve="18.998791"/>
<vertex x="2.0407" y="1.2751"/>
<vertex x="2.758" y="2.1548"/>
<vertex x="2.1548" y="2.758"/>
<vertex x="1.2751" y="2.0407" curve="18.998791"/>
<vertex x="0.5413" y="2.3446"/>
<vertex x="0.4265" y="3.4739"/>
<vertex x="-0.4265" y="3.4739"/>
<vertex x="-0.5413" y="2.3446" curve="18.998791"/>
<vertex x="-1.2751" y="2.0407"/>
<vertex x="-2.1548" y="2.758"/>
<vertex x="-2.758" y="2.1548"/>
<vertex x="-2.0407" y="1.2751" curve="18.998791"/>
<vertex x="-2.3446" y="0.5413"/>
<vertex x="-3.4739" y="0.4265"/>
<vertex x="-3.4739" y="-0.4265"/>
<vertex x="-2.3446" y="-0.5413" curve="18.998791"/>
<vertex x="-2.0407" y="-1.2751"/>
<vertex x="-2.758" y="-2.1548"/>
<vertex x="-2.1548" y="-2.758"/>
<vertex x="-1.2751" y="-2.0407" curve="9.497479"/>
<vertex x="-0.9209" y="-2.2231"/>
<vertex x="-0.4186" y="-1.0105" curve="-67.504205"/>
<vertex x="-1.0938" y="0" curve="-247.497204"/>
<vertex x="0.4186" y="-1.0105"/>
</polygon>
</package>
</packages>
<packages3d>
<package3d name="DUMMY" urn="urn:adsk.eagle:package:37104/1" type="box" library_version="1">
<description>Dummy Footprint
NOTHING HERE!!! For when you want a symbol with no package as an option against symbols with a package.

Devices using:
BADGERHACK_LOGO
FRAME-LETTER</description>
<packageinstances>
<packageinstance name="DUMMY"/>
</packageinstances>
</package3d>
<package3d name="OSHW-LOGO-L" urn="urn:adsk.eagle:package:37097/1" type="box" library_version="1">
<description>Open-Source Hardware (OSHW) Logo - Large - Silkscreen
Silkscreen logo for open-source hardware designs.
Devices using:
OSHW_LOGO</description>
<packageinstances>
<packageinstance name="OSHW-LOGO-L"/>
</packageinstances>
</package3d>
</packages3d>
</library>
<library name="SparkFun-Connectors" urn="urn:adsk.eagle:library:513">
<description>&lt;h3&gt;SparkFun Connectors&lt;/h3&gt;
This library contains electrically-functional connectors. 
&lt;br&gt;
&lt;br&gt;
We've spent an enormous amount of time creating and checking these footprints and parts, but it is &lt;b&gt; the end user's responsibility&lt;/b&gt; to ensure correctness and suitablity for a given componet or application. 
&lt;br&gt;
&lt;br&gt;If you enjoy using this library, please buy one of our products at &lt;a href=" www.sparkfun.com"&gt;SparkFun.com&lt;/a&gt;.
&lt;br&gt;
&lt;br&gt;
&lt;b&gt;Licensing:&lt;/b&gt; Creative Commons ShareAlike 4.0 International - https://creativecommons.org/licenses/by-sa/4.0/ 
&lt;br&gt;
&lt;br&gt;
You are welcome to use this library for commercial purposes. For attribution, we ask that when you begin to sell your device using our footprint, you email us with a link to the product being sold. We want bragging rights that we helped (in a very small part) to create your 8th world wonder. We would like the opportunity to feature your device on our homepage.</description>
<packages>
<package name="1X08_FEMALE_LOCK" urn="urn:adsk.eagle:footprint:37772/1" library_version="1">
<description>&lt;h3&gt;Plated Through Hole -8 Pin Locking Female Headers&lt;/h3&gt;
Holes are offset 0.005" to hold pins in place during soldering. 
&lt;p&gt;Specifications:
&lt;ul&gt;&lt;li&gt;Pin count:8&lt;/li&gt;
&lt;li&gt;Pin pitch:0.1"&lt;/li&gt;
&lt;/ul&gt;&lt;/p&gt;
&lt;p&gt;&lt;a href=”https://cdn.sparkfun.com/datasheets/Prototyping/SP-140520-XX-001.pdf”&gt;Datasheet referenced for footprint&lt;/a&gt;&lt;/p&gt;
&lt;p&gt;Example device(s):
&lt;ul&gt;&lt;li&gt;CONN_08&lt;/li&gt;
&lt;/ul&gt;&lt;/p&gt;</description>
<wire x1="-1.27" y1="1.27" x2="-1.27" y2="-1.27" width="0.2032" layer="21"/>
<wire x1="-1.27" y1="1.27" x2="19.05" y2="1.27" width="0.2032" layer="21"/>
<wire x1="19.05" y1="-1.27" x2="-1.27" y2="-1.27" width="0.2032" layer="21"/>
<wire x1="19.05" y1="1.27" x2="19.05" y2="-1.27" width="0.2032" layer="21"/>
<pad name="1" x="0" y="0.2286" drill="1.016" diameter="1.8796" rot="R90"/>
<pad name="2" x="2.54" y="-0.2286" drill="1.016" diameter="1.8796" rot="R90"/>
<pad name="3" x="5.08" y="0.2286" drill="1.016" diameter="1.8796" rot="R90"/>
<pad name="4" x="7.62" y="-0.2286" drill="1.016" diameter="1.8796" rot="R90"/>
<pad name="5" x="10.16" y="0.2286" drill="1.016" diameter="1.8796" rot="R90"/>
<pad name="6" x="12.7" y="-0.2286" drill="1.016" diameter="1.8796" rot="R90"/>
<pad name="7" x="15.24" y="0.2286" drill="1.016" diameter="1.8796" rot="R90"/>
<pad name="8" x="17.78" y="-0.2286" drill="1.016" diameter="1.8796" rot="R90"/>
<rectangle x1="-0.3175" y1="-0.1905" x2="0.3175" y2="0.1905" layer="51"/>
<rectangle x1="2.2225" y1="-0.1905" x2="2.8575" y2="0.1905" layer="51"/>
<rectangle x1="4.7625" y1="-0.1905" x2="5.3975" y2="0.1905" layer="51"/>
<rectangle x1="7.3025" y1="-0.1905" x2="7.9375" y2="0.1905" layer="51"/>
<rectangle x1="9.8425" y1="-0.1905" x2="10.4775" y2="0.1905" layer="51"/>
<rectangle x1="12.3825" y1="-0.1905" x2="13.0175" y2="0.1905" layer="51"/>
<rectangle x1="14.9225" y1="-0.1905" x2="15.5575" y2="0.1905" layer="51"/>
<rectangle x1="17.4625" y1="-0.1905" x2="18.0975" y2="0.1905" layer="51"/>
<text x="-1.27" y="1.397" size="0.6096" layer="25" font="vector" ratio="20">&gt;NAME</text>
<text x="-1.27" y="-2.032" size="0.6096" layer="27" font="vector" ratio="20">&gt;VALUE</text>
</package>
<package name="1X07_LOCK" urn="urn:adsk.eagle:footprint:37754/1" library_version="1">
<description>&lt;h3&gt;Plated Through Hole -7 Pin Locking Footprint&lt;/h3&gt;
Holes are offset 0.005" from center, locking pins in place during soldering.
&lt;p&gt;Specifications:
&lt;ul&gt;&lt;li&gt;Pin count:7&lt;/li&gt;
&lt;li&gt;Pin pitch:0.1"&lt;/li&gt;
&lt;/ul&gt;&lt;/p&gt;
&lt;p&gt;Example device(s):
&lt;ul&gt;&lt;li&gt;CONN_07&lt;/li&gt;
&lt;/ul&gt;&lt;/p&gt;</description>
<wire x1="14.605" y1="1.27" x2="15.875" y2="1.27" width="0.2032" layer="21"/>
<wire x1="15.875" y1="1.27" x2="16.51" y2="0.635" width="0.2032" layer="21"/>
<wire x1="16.51" y1="-0.635" x2="15.875" y2="-1.27" width="0.2032" layer="21"/>
<wire x1="11.43" y1="0.635" x2="12.065" y2="1.27" width="0.2032" layer="21"/>
<wire x1="12.065" y1="1.27" x2="13.335" y2="1.27" width="0.2032" layer="21"/>
<wire x1="13.335" y1="1.27" x2="13.97" y2="0.635" width="0.2032" layer="21"/>
<wire x1="13.97" y1="-0.635" x2="13.335" y2="-1.27" width="0.2032" layer="21"/>
<wire x1="13.335" y1="-1.27" x2="12.065" y2="-1.27" width="0.2032" layer="21"/>
<wire x1="12.065" y1="-1.27" x2="11.43" y2="-0.635" width="0.2032" layer="21"/>
<wire x1="14.605" y1="1.27" x2="13.97" y2="0.635" width="0.2032" layer="21"/>
<wire x1="13.97" y1="-0.635" x2="14.605" y2="-1.27" width="0.2032" layer="21"/>
<wire x1="15.875" y1="-1.27" x2="14.605" y2="-1.27" width="0.2032" layer="21"/>
<wire x1="6.985" y1="1.27" x2="8.255" y2="1.27" width="0.2032" layer="21"/>
<wire x1="8.255" y1="1.27" x2="8.89" y2="0.635" width="0.2032" layer="21"/>
<wire x1="8.89" y1="-0.635" x2="8.255" y2="-1.27" width="0.2032" layer="21"/>
<wire x1="8.89" y1="0.635" x2="9.525" y2="1.27" width="0.2032" layer="21"/>
<wire x1="9.525" y1="1.27" x2="10.795" y2="1.27" width="0.2032" layer="21"/>
<wire x1="10.795" y1="1.27" x2="11.43" y2="0.635" width="0.2032" layer="21"/>
<wire x1="11.43" y1="-0.635" x2="10.795" y2="-1.27" width="0.2032" layer="21"/>
<wire x1="10.795" y1="-1.27" x2="9.525" y2="-1.27" width="0.2032" layer="21"/>
<wire x1="9.525" y1="-1.27" x2="8.89" y2="-0.635" width="0.2032" layer="21"/>
<wire x1="3.81" y1="0.635" x2="4.445" y2="1.27" width="0.2032" layer="21"/>
<wire x1="4.445" y1="1.27" x2="5.715" y2="1.27" width="0.2032" layer="21"/>
<wire x1="5.715" y1="1.27" x2="6.35" y2="0.635" width="0.2032" layer="21"/>
<wire x1="6.35" y1="-0.635" x2="5.715" y2="-1.27" width="0.2032" layer="21"/>
<wire x1="5.715" y1="-1.27" x2="4.445" y2="-1.27" width="0.2032" layer="21"/>
<wire x1="4.445" y1="-1.27" x2="3.81" y2="-0.635" width="0.2032" layer="21"/>
<wire x1="6.985" y1="1.27" x2="6.35" y2="0.635" width="0.2032" layer="21"/>
<wire x1="6.35" y1="-0.635" x2="6.985" y2="-1.27" width="0.2032" layer="21"/>
<wire x1="8.255" y1="-1.27" x2="6.985" y2="-1.27" width="0.2032" layer="21"/>
<wire x1="-0.635" y1="1.27" x2="0.635" y2="1.27" width="0.2032" layer="21"/>
<wire x1="0.635" y1="1.27" x2="1.27" y2="0.635" width="0.2032" layer="21"/>
<wire x1="1.27" y1="-0.635" x2="0.635" y2="-1.27" width="0.2032" layer="21"/>
<wire x1="1.27" y1="0.635" x2="1.905" y2="1.27" width="0.2032" layer="21"/>
<wire x1="1.905" y1="1.27" x2="3.175" y2="1.27" width="0.2032" layer="21"/>
<wire x1="3.175" y1="1.27" x2="3.81" y2="0.635" width="0.2032" layer="21"/>
<wire x1="3.81" y1="-0.635" x2="3.175" y2="-1.27" width="0.2032" layer="21"/>
<wire x1="3.175" y1="-1.27" x2="1.905" y2="-1.27" width="0.2032" layer="21"/>
<wire x1="1.905" y1="-1.27" x2="1.27" y2="-0.635" width="0.2032" layer="21"/>
<wire x1="-1.27" y1="0.635" x2="-1.27" y2="-0.635" width="0.2032" layer="21"/>
<wire x1="-0.635" y1="1.27" x2="-1.27" y2="0.635" width="0.2032" layer="21"/>
<wire x1="-1.27" y1="-0.635" x2="-0.635" y2="-1.27" width="0.2032" layer="21"/>
<wire x1="0.635" y1="-1.27" x2="-0.635" y2="-1.27" width="0.2032" layer="21"/>
<wire x1="16.51" y1="0.635" x2="16.51" y2="-0.635" width="0.2032" layer="21"/>
<pad name="1" x="0" y="0.127" drill="1.016" diameter="1.8796" rot="R90"/>
<pad name="2" x="2.54" y="-0.127" drill="1.016" diameter="1.8796" rot="R90"/>
<pad name="3" x="5.08" y="0.127" drill="1.016" diameter="1.8796" rot="R90"/>
<pad name="4" x="7.62" y="-0.127" drill="1.016" diameter="1.8796" rot="R90"/>
<pad name="5" x="10.16" y="0.127" drill="1.016" diameter="1.8796" rot="R90"/>
<pad name="6" x="12.7" y="-0.127" drill="1.016" diameter="1.8796" rot="R90"/>
<pad name="7" x="15.24" y="0.127" drill="1.016" diameter="1.8796" rot="R90"/>
<rectangle x1="14.986" y1="-0.254" x2="15.494" y2="0.254" layer="51"/>
<rectangle x1="12.446" y1="-0.254" x2="12.954" y2="0.254" layer="51"/>
<rectangle x1="9.906" y1="-0.254" x2="10.414" y2="0.254" layer="51"/>
<rectangle x1="7.366" y1="-0.254" x2="7.874" y2="0.254" layer="51"/>
<rectangle x1="4.826" y1="-0.254" x2="5.334" y2="0.254" layer="51"/>
<rectangle x1="2.286" y1="-0.254" x2="2.794" y2="0.254" layer="51"/>
<rectangle x1="-0.254" y1="-0.254" x2="0.254" y2="0.254" layer="51"/>
<text x="-1.27" y="1.397" size="0.6096" layer="25" font="vector" ratio="20">&gt;NAME</text>
<text x="-1.27" y="-2.032" size="0.6096" layer="27" font="vector" ratio="20">&gt;VALUE</text>
</package>
<package name="2X3_LOCK" urn="urn:adsk.eagle:footprint:37610/1" library_version="1">
<description>&lt;h3&gt;Plated Through Hole - 2x3 Locking Footprint&lt;/h3&gt;
Holes are offset from center 0.005", to hold pins in place while soldering. 
&lt;p&gt;Specifications:
&lt;ul&gt;&lt;li&gt;Pin count:6&lt;/li&gt;
&lt;li&gt;Pin pitch:0.1"&lt;/li&gt;
&lt;/ul&gt;&lt;/p&gt;
&lt;p&gt;Example device(s):
&lt;ul&gt;&lt;li&gt;CONN_03x2&lt;/li&gt;
&lt;/ul&gt;&lt;/p&gt;</description>
<wire x1="-1.27" y1="-0.635" x2="-0.635" y2="-1.27" width="0.2032" layer="21"/>
<wire x1="0.635" y1="-1.27" x2="1.27" y2="-0.635" width="0.2032" layer="21"/>
<wire x1="1.27" y1="-0.635" x2="1.905" y2="-1.27" width="0.2032" layer="21"/>
<wire x1="3.175" y1="-1.27" x2="3.81" y2="-0.635" width="0.2032" layer="21"/>
<wire x1="3.81" y1="-0.635" x2="4.445" y2="-1.27" width="0.2032" layer="21"/>
<wire x1="5.715" y1="-1.27" x2="6.35" y2="-0.635" width="0.2032" layer="21"/>
<wire x1="-1.27" y1="-0.635" x2="-1.27" y2="3.175" width="0.2032" layer="21"/>
<wire x1="-1.27" y1="3.175" x2="-0.635" y2="3.81" width="0.2032" layer="21"/>
<wire x1="-0.635" y1="3.81" x2="0.635" y2="3.81" width="0.2032" layer="21"/>
<wire x1="0.635" y1="3.81" x2="1.27" y2="3.175" width="0.2032" layer="21"/>
<wire x1="1.27" y1="3.175" x2="1.905" y2="3.81" width="0.2032" layer="21"/>
<wire x1="1.905" y1="3.81" x2="3.175" y2="3.81" width="0.2032" layer="21"/>
<wire x1="3.175" y1="3.81" x2="3.81" y2="3.175" width="0.2032" layer="21"/>
<wire x1="3.81" y1="3.175" x2="4.445" y2="3.81" width="0.2032" layer="21"/>
<wire x1="4.445" y1="3.81" x2="5.715" y2="3.81" width="0.2032" layer="21"/>
<wire x1="5.715" y1="3.81" x2="6.35" y2="3.175" width="0.2032" layer="21"/>
<wire x1="1.27" y1="3.175" x2="1.27" y2="-0.635" width="0.2032" layer="21"/>
<wire x1="3.81" y1="3.175" x2="3.81" y2="-0.635" width="0.2032" layer="21"/>
<wire x1="6.35" y1="3.175" x2="6.35" y2="-0.635" width="0.2032" layer="21"/>
<wire x1="4.445" y1="-1.27" x2="5.715" y2="-1.27" width="0.2032" layer="21"/>
<wire x1="1.905" y1="-1.27" x2="3.175" y2="-1.27" width="0.2032" layer="21"/>
<wire x1="-0.635" y1="-1.27" x2="0.635" y2="-1.27" width="0.2032" layer="21"/>
<wire x1="0.635" y1="-1.605" x2="-0.635" y2="-1.605" width="0.2032" layer="21"/>
<wire x1="-0.635" y1="-1.605" x2="0.635" y2="-1.605" width="0.2032" layer="22"/>
<pad name="1" x="0" y="0.127" drill="1.016" diameter="1.8796"/>
<pad name="2" x="0" y="2.667" drill="1.016" diameter="1.8796"/>
<pad name="3" x="2.54" y="-0.127" drill="1.016" diameter="1.8796"/>
<pad name="4" x="2.54" y="2.413" drill="1.016" diameter="1.8796" rot="R90"/>
<pad name="5" x="5.08" y="0.127" drill="1.016" diameter="1.8796"/>
<pad name="6" x="5.08" y="2.667" drill="1.016" diameter="1.8796"/>
<rectangle x1="-0.254" y1="-0.254" x2="0.254" y2="0.254" layer="51"/>
<rectangle x1="-0.254" y1="2.286" x2="0.254" y2="2.794" layer="51"/>
<rectangle x1="2.286" y1="2.286" x2="2.794" y2="2.794" layer="51"/>
<rectangle x1="2.286" y1="-0.254" x2="2.794" y2="0.254" layer="51"/>
<rectangle x1="4.826" y1="2.286" x2="5.334" y2="2.794" layer="51"/>
<rectangle x1="4.826" y1="-0.254" x2="5.334" y2="0.254" layer="51"/>
<text x="-1.27" y="3.937" size="0.6096" layer="25" font="vector" ratio="20">&gt;NAME</text>
<text x="-1.27" y="-2.667" size="0.6096" layer="27" font="vector" ratio="20">&gt;VALUE</text>
</package>
</packages>
<packages3d>
<package3d name="1X08_FEMALE_LOCK" urn="urn:adsk.eagle:package:38151/1" type="box" library_version="1">
<description>Plated Through Hole -8 Pin Locking Female Headers
Holes are offset 0.005" to hold pins in place during soldering. 
Specifications:
Pin count:8
Pin pitch:0.1"

Datasheet referenced for footprint
Example device(s):
CONN_08
</description>
<packageinstances>
<packageinstance name="1X08_FEMALE_LOCK"/>
</packageinstances>
</package3d>
<package3d name="1X07_LOCK" urn="urn:adsk.eagle:package:38132/1" type="box" library_version="1">
<description>Plated Through Hole -7 Pin Locking Footprint
Holes are offset 0.005" from center, locking pins in place during soldering.
Specifications:
Pin count:7
Pin pitch:0.1"

Example device(s):
CONN_07
</description>
<packageinstances>
<packageinstance name="1X07_LOCK"/>
</packageinstances>
</package3d>
<package3d name="2X3_LOCK" urn="urn:adsk.eagle:package:38010/1" type="box" library_version="1">
<description>Plated Through Hole - 2x3 Locking Footprint
Holes are offset from center 0.005", to hold pins in place while soldering. 
Specifications:
Pin count:6
Pin pitch:0.1"

Example device(s):
CONN_03x2
</description>
<packageinstances>
<packageinstance name="2X3_LOCK"/>
</packageinstances>
</package3d>
</packages3d>
</library>
<library name="SparkFun-IC-Microcontroller" urn="urn:adsk.eagle:library:525">
<description>&lt;h3&gt;SparkFun Microcontrollers&lt;/h3&gt;
This library contains microcontrollers.
&lt;br&gt;
&lt;br&gt;
We've spent an enormous amount of time creating and checking these footprints and parts, but it is &lt;b&gt; the end user's responsibility&lt;/b&gt; to ensure correctness and suitablity for a given componet or application. 
&lt;br&gt;
&lt;br&gt;If you enjoy using this library, please buy one of our products at &lt;a href=" www.sparkfun.com"&gt;SparkFun.com&lt;/a&gt;.
&lt;br&gt;
&lt;br&gt;
&lt;b&gt;Licensing:&lt;/b&gt; Creative Commons ShareAlike 4.0 International - https://creativecommons.org/licenses/by-sa/4.0/ 
&lt;br&gt;
&lt;br&gt;
You are welcome to use this library for commercial purposes. For attribution, we ask that when you begin to sell your device using our footprint, you email us with a link to the product being sold. We want bragging rights that we helped (in a very small part) to create your 8th world wonder. We would like the opportunity to feature your device on our homepage.</description>
<packages>
<package name="TQFP32-08" urn="urn:adsk.eagle:footprint:38853/1" library_version="1">
<description>&lt;B&gt;Thin Plasic Quad Flat Package&lt;/B&gt; Grid 0.8 mm</description>
<wire x1="3.505" y1="3.505" x2="3.505" y2="-3.505" width="0.2032" layer="21"/>
<wire x1="3.505" y1="-3.505" x2="-3.505" y2="-3.505" width="0.2032" layer="21"/>
<wire x1="-3.505" y1="-3.505" x2="-3.505" y2="3.15" width="0.2032" layer="21"/>
<wire x1="-3.15" y1="3.505" x2="3.505" y2="3.505" width="0.2032" layer="21"/>
<wire x1="-3.15" y1="3.505" x2="-3.505" y2="3.15" width="0.2032" layer="21"/>
<circle x="-3.6576" y="3.683" radius="0.1524" width="0.2032" layer="21"/>
<smd name="1" x="-4.2926" y="2.8" dx="1.27" dy="0.5588" layer="1"/>
<smd name="2" x="-4.2926" y="2" dx="1.27" dy="0.5588" layer="1"/>
<smd name="3" x="-4.2926" y="1.2" dx="1.27" dy="0.5588" layer="1"/>
<smd name="4" x="-4.2926" y="0.4" dx="1.27" dy="0.5588" layer="1"/>
<smd name="5" x="-4.2926" y="-0.4" dx="1.27" dy="0.5588" layer="1"/>
<smd name="6" x="-4.2926" y="-1.2" dx="1.27" dy="0.5588" layer="1"/>
<smd name="7" x="-4.2926" y="-2" dx="1.27" dy="0.5588" layer="1"/>
<smd name="8" x="-4.2926" y="-2.8" dx="1.27" dy="0.5588" layer="1"/>
<smd name="9" x="-2.8" y="-4.2926" dx="0.5588" dy="1.27" layer="1"/>
<smd name="10" x="-2" y="-4.2926" dx="0.5588" dy="1.27" layer="1"/>
<smd name="11" x="-1.2" y="-4.2926" dx="0.5588" dy="1.27" layer="1"/>
<smd name="12" x="-0.4" y="-4.2926" dx="0.5588" dy="1.27" layer="1"/>
<smd name="13" x="0.4" y="-4.2926" dx="0.5588" dy="1.27" layer="1"/>
<smd name="14" x="1.2" y="-4.2926" dx="0.5588" dy="1.27" layer="1"/>
<smd name="15" x="2" y="-4.2926" dx="0.5588" dy="1.27" layer="1"/>
<smd name="16" x="2.8" y="-4.2926" dx="0.5588" dy="1.27" layer="1"/>
<smd name="17" x="4.2926" y="-2.8" dx="1.27" dy="0.5588" layer="1"/>
<smd name="18" x="4.2926" y="-2" dx="1.27" dy="0.5588" layer="1"/>
<smd name="19" x="4.2926" y="-1.2" dx="1.27" dy="0.5588" layer="1"/>
<smd name="20" x="4.2926" y="-0.4" dx="1.27" dy="0.5588" layer="1"/>
<smd name="21" x="4.2926" y="0.4" dx="1.27" dy="0.5588" layer="1"/>
<smd name="22" x="4.2926" y="1.2" dx="1.27" dy="0.5588" layer="1"/>
<smd name="23" x="4.2926" y="2" dx="1.27" dy="0.5588" layer="1"/>
<smd name="24" x="4.2926" y="2.8" dx="1.27" dy="0.5588" layer="1"/>
<smd name="25" x="2.8" y="4.2926" dx="0.5588" dy="1.27" layer="1"/>
<smd name="26" x="2" y="4.2926" dx="0.5588" dy="1.27" layer="1"/>
<smd name="27" x="1.2" y="4.2926" dx="0.5588" dy="1.27" layer="1"/>
<smd name="28" x="0.4" y="4.2926" dx="0.5588" dy="1.27" layer="1"/>
<smd name="29" x="-0.4" y="4.2926" dx="0.5588" dy="1.27" layer="1"/>
<smd name="30" x="-1.2" y="4.2926" dx="0.5588" dy="1.27" layer="1"/>
<smd name="31" x="-2" y="4.2926" dx="0.5588" dy="1.27" layer="1"/>
<smd name="32" x="-2.8" y="4.2926" dx="0.5588" dy="1.27" layer="1"/>
<rectangle x1="-4.5466" y1="2.5714" x2="-3.556" y2="3.0286" layer="51"/>
<rectangle x1="-4.5466" y1="1.7714" x2="-3.556" y2="2.2286" layer="51"/>
<rectangle x1="-4.5466" y1="0.9714" x2="-3.556" y2="1.4286" layer="51"/>
<rectangle x1="-4.5466" y1="0.1714" x2="-3.556" y2="0.6286" layer="51"/>
<rectangle x1="-4.5466" y1="-0.6286" x2="-3.556" y2="-0.1714" layer="51"/>
<rectangle x1="-4.5466" y1="-1.4286" x2="-3.556" y2="-0.9714" layer="51"/>
<rectangle x1="-4.5466" y1="-2.2286" x2="-3.556" y2="-1.7714" layer="51"/>
<rectangle x1="-4.5466" y1="-3.0286" x2="-3.556" y2="-2.5714" layer="51"/>
<rectangle x1="-3.0286" y1="-4.5466" x2="-2.5714" y2="-3.556" layer="51"/>
<rectangle x1="-2.2286" y1="-4.5466" x2="-1.7714" y2="-3.556" layer="51"/>
<rectangle x1="-1.4286" y1="-4.5466" x2="-0.9714" y2="-3.556" layer="51"/>
<rectangle x1="-0.6286" y1="-4.5466" x2="-0.1714" y2="-3.556" layer="51"/>
<rectangle x1="0.1714" y1="-4.5466" x2="0.6286" y2="-3.556" layer="51"/>
<rectangle x1="0.9714" y1="-4.5466" x2="1.4286" y2="-3.556" layer="51"/>
<rectangle x1="1.7714" y1="-4.5466" x2="2.2286" y2="-3.556" layer="51"/>
<rectangle x1="2.5714" y1="-4.5466" x2="3.0286" y2="-3.556" layer="51"/>
<rectangle x1="3.556" y1="-3.0286" x2="4.5466" y2="-2.5714" layer="51"/>
<rectangle x1="3.556" y1="-2.2286" x2="4.5466" y2="-1.7714" layer="51"/>
<rectangle x1="3.556" y1="-1.4286" x2="4.5466" y2="-0.9714" layer="51"/>
<rectangle x1="3.556" y1="-0.6286" x2="4.5466" y2="-0.1714" layer="51"/>
<rectangle x1="3.556" y1="0.1714" x2="4.5466" y2="0.6286" layer="51"/>
<rectangle x1="3.556" y1="0.9714" x2="4.5466" y2="1.4286" layer="51"/>
<rectangle x1="3.556" y1="1.7714" x2="4.5466" y2="2.2286" layer="51"/>
<rectangle x1="3.556" y1="2.5714" x2="4.5466" y2="3.0286" layer="51"/>
<rectangle x1="2.5714" y1="3.556" x2="3.0286" y2="4.5466" layer="51"/>
<rectangle x1="1.7714" y1="3.556" x2="2.2286" y2="4.5466" layer="51"/>
<rectangle x1="0.9714" y1="3.556" x2="1.4286" y2="4.5466" layer="51"/>
<rectangle x1="0.1714" y1="3.556" x2="0.6286" y2="4.5466" layer="51"/>
<rectangle x1="-0.6286" y1="3.556" x2="-0.1714" y2="4.5466" layer="51"/>
<rectangle x1="-1.4286" y1="3.556" x2="-0.9714" y2="4.5466" layer="51"/>
<rectangle x1="-2.2286" y1="3.556" x2="-1.7714" y2="4.5466" layer="51"/>
<rectangle x1="-3.0286" y1="3.556" x2="-2.5714" y2="4.5466" layer="51"/>
<text x="0" y="5.715" size="0.6096" layer="25" font="vector" ratio="20" align="bottom-center">&gt;NAME</text>
<text x="0" y="-6.35" size="0.6096" layer="27" font="vector" ratio="20" align="bottom-center">&gt;VALUE</text>
</package>
</packages>
<packages3d>
<package3d name="TQFP32-08" urn="urn:adsk.eagle:package:38945/1" type="box" library_version="1">
<description>Thin Plasic Quad Flat Package Grid 0.8 mm</description>
<packageinstances>
<packageinstance name="TQFP32-08"/>
</packageinstances>
</package3d>
</packages3d>
</library>
<library name="SparkFun-Capacitors" urn="urn:adsk.eagle:library:510">
<description>&lt;h3&gt;SparkFun Capacitors&lt;/h3&gt;
This library contains capacitors. 
&lt;br&gt;
&lt;br&gt;
We've spent an enormous amount of time creating and checking these footprints and parts, but it is &lt;b&gt; the end user's responsibility&lt;/b&gt; to ensure correctness and suitablity for a given componet or application. 
&lt;br&gt;
&lt;br&gt;If you enjoy using this library, please buy one of our products at &lt;a href=" www.sparkfun.com"&gt;SparkFun.com&lt;/a&gt;.
&lt;br&gt;
&lt;br&gt;
&lt;b&gt;Licensing:&lt;/b&gt; Creative Commons ShareAlike 4.0 International - https://creativecommons.org/licenses/by-sa/4.0/ 
&lt;br&gt;
&lt;br&gt;
You are welcome to use this library for commercial purposes. For attribution, we ask that when you begin to sell your device using our footprint, you email us with a link to the product being sold. We want bragging rights that we helped (in a very small part) to create your 8th world wonder. We would like the opportunity to feature your device on our homepage.</description>
<packages>
<package name="0805" urn="urn:adsk.eagle:footprint:37400/1" library_version="1">
<description>&lt;p&gt;&lt;b&gt;Generic 2012 (0805) package&lt;/b&gt;&lt;/p&gt;
&lt;p&gt;0.2mm courtyard excess rounded to nearest 0.05mm.&lt;/p&gt;</description>
<smd name="1" x="-0.9" y="0" dx="0.8" dy="1.2" layer="1"/>
<smd name="2" x="0.9" y="0" dx="0.8" dy="1.2" layer="1"/>
<text x="0" y="0.889" size="0.6096" layer="25" font="vector" ratio="20" align="bottom-center">&gt;NAME</text>
<text x="0" y="-0.889" size="0.6096" layer="27" font="vector" ratio="20" align="top-center">&gt;VALUE</text>
<wire x1="-1.5" y1="0.8" x2="1.5" y2="0.8" width="0.0508" layer="39"/>
<wire x1="1.5" y1="0.8" x2="1.5" y2="-0.8" width="0.0508" layer="39"/>
<wire x1="1.5" y1="-0.8" x2="-1.5" y2="-0.8" width="0.0508" layer="39"/>
<wire x1="-1.5" y1="-0.8" x2="-1.5" y2="0.8" width="0.0508" layer="39"/>
</package>
</packages>
<packages3d>
<package3d name="0805" urn="urn:adsk.eagle:package:37429/1" type="box" library_version="1">
<description>Generic 2012 (0805) package
0.2mm courtyard excess rounded to nearest 0.05mm.</description>
<packageinstances>
<packageinstance name="0805"/>
</packageinstances>
</package3d>
</packages3d>
</library>
<library name="adafruit" urn="urn:adsk.eagle:library:420">
<packages>
<package name="SO16W">
<description>&lt;b&gt;SMALL OUTLINE INTEGRATED CIRCUIT&lt;/b&gt;&lt;p&gt;
wide body 7.5 mm/JEDEC MS-013AA</description>
<wire x1="-5.395" y1="5.9" x2="5.395" y2="5.9" width="0.1998" layer="39"/>
<wire x1="5.395" y1="-5.9" x2="-5.395" y2="-5.9" width="0.1998" layer="39"/>
<wire x1="-5.395" y1="-5.9" x2="-5.395" y2="5.9" width="0.1998" layer="39"/>
<wire x1="5.19" y1="-3.7" x2="-5.19" y2="-3.7" width="0.2032" layer="51"/>
<wire x1="-5.19" y1="-3.7" x2="-5.19" y2="-3.2" width="0.2032" layer="51"/>
<wire x1="-5.19" y1="-3.2" x2="-5.19" y2="3.7" width="0.2032" layer="51"/>
<wire x1="-5.19" y1="3.7" x2="5.19" y2="3.7" width="0.2032" layer="51"/>
<wire x1="5.19" y1="-3.2" x2="-5.19" y2="-3.2" width="0.2032" layer="51"/>
<wire x1="5.19" y1="3.7" x2="5.19" y2="-3.2" width="0.2032" layer="51"/>
<wire x1="5.19" y1="-3.2" x2="5.19" y2="-3.7" width="0.2032" layer="51"/>
<wire x1="5.395" y1="5.9" x2="5.395" y2="-5.9" width="0.1998" layer="39"/>
<smd name="2" x="-3.175" y="-4.6" dx="0.6" dy="2.2" layer="1"/>
<smd name="13" x="-0.635" y="4.6" dx="0.6" dy="2.2" layer="1"/>
<smd name="1" x="-4.445" y="-4.6" dx="0.6" dy="2.2" layer="1"/>
<smd name="3" x="-1.905" y="-4.6" dx="0.6" dy="2.2" layer="1"/>
<smd name="4" x="-0.635" y="-4.6" dx="0.6" dy="2.2" layer="1"/>
<smd name="14" x="-1.905" y="4.6" dx="0.6" dy="2.2" layer="1"/>
<smd name="12" x="0.635" y="4.6" dx="0.6" dy="2.2" layer="1"/>
<smd name="11" x="1.905" y="4.6" dx="0.6" dy="2.2" layer="1"/>
<smd name="6" x="1.905" y="-4.6" dx="0.6" dy="2.2" layer="1"/>
<smd name="9" x="4.445" y="4.6" dx="0.6" dy="2.2" layer="1"/>
<smd name="5" x="0.635" y="-4.6" dx="0.6" dy="2.2" layer="1"/>
<smd name="7" x="3.175" y="-4.6" dx="0.6" dy="2.2" layer="1"/>
<smd name="10" x="3.175" y="4.6" dx="0.6" dy="2.2" layer="1"/>
<smd name="8" x="4.445" y="-4.6" dx="0.6" dy="2.2" layer="1"/>
<smd name="15" x="-3.175" y="4.6" dx="0.6" dy="2.2" layer="1"/>
<smd name="16" x="-4.445" y="4.6" dx="0.6" dy="2.2" layer="1"/>
<text x="-4.445" y="1.27" size="1.27" layer="25">&gt;NAME</text>
<text x="-4.445" y="-2.54" size="1.27" layer="27">&gt;VALUE</text>
<rectangle x1="-4.6901" y1="-5.32" x2="-4.1999" y2="-3.8001" layer="51"/>
<rectangle x1="-3.4201" y1="-5.32" x2="-2.9299" y2="-3.8001" layer="51"/>
<rectangle x1="-2.1501" y1="-5.32" x2="-1.6599" y2="-3.8001" layer="51"/>
<rectangle x1="-0.8801" y1="-5.32" x2="-0.3899" y2="-3.8001" layer="51"/>
<rectangle x1="0.3899" y1="-5.32" x2="0.8801" y2="-3.8001" layer="51"/>
<rectangle x1="1.6599" y1="-5.32" x2="2.1501" y2="-3.8001" layer="51"/>
<rectangle x1="2.9299" y1="-5.32" x2="3.4201" y2="-3.8001" layer="51"/>
<rectangle x1="4.1999" y1="-5.32" x2="4.6901" y2="-3.8001" layer="51"/>
<rectangle x1="4.1999" y1="3.8001" x2="4.6901" y2="5.32" layer="51"/>
<rectangle x1="2.9299" y1="3.8001" x2="3.4201" y2="5.32" layer="51"/>
<rectangle x1="1.6599" y1="3.8001" x2="2.1501" y2="5.32" layer="51"/>
<rectangle x1="0.3899" y1="3.8001" x2="0.8801" y2="5.32" layer="51"/>
<rectangle x1="-0.8801" y1="3.8001" x2="-0.3899" y2="5.32" layer="51"/>
<rectangle x1="-2.1501" y1="3.8001" x2="-1.6599" y2="5.32" layer="51"/>
<rectangle x1="-3.4201" y1="3.8001" x2="-2.9299" y2="5.32" layer="51"/>
<rectangle x1="-4.6901" y1="3.8001" x2="-4.1999" y2="5.32" layer="51"/>
</package>
</packages>
</library>
<library name="SparkFun-Resistors" urn="urn:adsk.eagle:library:532">
<description>&lt;h3&gt;SparkFun Resistors&lt;/h3&gt;
This library contains resistors. Reference designator:R. 
&lt;br&gt;
&lt;br&gt;
We've spent an enormous amount of time creating and checking these footprints and parts, but it is &lt;b&gt; the end user's responsibility&lt;/b&gt; to ensure correctness and suitablity for a given componet or application. 
&lt;br&gt;
&lt;br&gt;If you enjoy using this library, please buy one of our products at &lt;a href=" www.sparkfun.com"&gt;SparkFun.com&lt;/a&gt;.
&lt;br&gt;
&lt;br&gt;
&lt;b&gt;Licensing:&lt;/b&gt; Creative Commons ShareAlike 4.0 International - https://creativecommons.org/licenses/by-sa/4.0/ 
&lt;br&gt;
&lt;br&gt;
You are welcome to use this library for commercial purposes. For attribution, we ask that when you begin to sell your device using our footprint, you email us with a link to the product being sold. We want bragging rights that we helped (in a very small part) to create your 8th world wonder. We would like the opportunity to feature your device on our homepage.</description>
<packages>
<package name="0805" urn="urn:adsk.eagle:footprint:39617/1" library_version="1">
<description>&lt;p&gt;&lt;b&gt;Generic 2012 (0805) package&lt;/b&gt;&lt;/p&gt;
&lt;p&gt;0.2mm courtyard excess rounded to nearest 0.05mm.&lt;/p&gt;</description>
<smd name="1" x="-0.9" y="0" dx="0.8" dy="1.2" layer="1"/>
<smd name="2" x="0.9" y="0" dx="0.8" dy="1.2" layer="1"/>
<text x="0" y="0.889" size="0.6096" layer="25" font="vector" ratio="20" align="bottom-center">&gt;NAME</text>
<text x="0" y="-0.889" size="0.6096" layer="27" font="vector" ratio="20" align="top-center">&gt;VALUE</text>
<wire x1="-1.5" y1="0.8" x2="1.5" y2="0.8" width="0.0508" layer="39"/>
<wire x1="1.5" y1="0.8" x2="1.5" y2="-0.8" width="0.0508" layer="39"/>
<wire x1="1.5" y1="-0.8" x2="-1.5" y2="-0.8" width="0.0508" layer="39"/>
<wire x1="-1.5" y1="-0.8" x2="-1.5" y2="0.8" width="0.0508" layer="39"/>
</package>
</packages>
<packages3d>
<package3d name="0805" urn="urn:adsk.eagle:package:39651/1" type="box" library_version="1">
<description>Generic 2012 (0805) package
0.2mm courtyard excess rounded to nearest 0.05mm.</description>
<packageinstances>
<packageinstance name="0805"/>
</packageinstances>
</package3d>
</packages3d>
</library>
<library name="CR1632">
<packages>
<package name="CR1632-SMD">
<circle x="0" y="0" radius="1.27" width="4.064" layer="29"/>
<wire x1="-7.9" y1="2.7" x2="-8.6" y2="2.7" width="0.127" layer="21"/>
<wire x1="-8.6" y1="2.7" x2="-8.6" y2="-3.7" width="0.127" layer="21"/>
<wire x1="-8.6" y1="-3.7" x2="-8" y2="-3.7" width="0.127" layer="21"/>
<wire x1="7.9" y1="2.7" x2="8.6" y2="2.7" width="0.127" layer="21"/>
<wire x1="8.6" y1="2.7" x2="8.6" y2="-3.7" width="0.127" layer="21"/>
<wire x1="8.6" y1="-3.7" x2="8" y2="-3.7" width="0.127" layer="21"/>
<wire x1="-3.299990625" y1="7.808" x2="-7.9" y2="2.7" width="0.127" layer="21"/>
<wire x1="2.999990625" y1="7.808" x2="7.9" y2="2.7" width="0.127" layer="21"/>
<wire x1="0" y1="7.5" x2="0" y2="5.5" width="0.127" layer="21"/>
<wire x1="-1" y1="6.5" x2="1" y2="6.5" width="0.127" layer="21"/>
<wire x1="-2.2" y1="-6.4" x2="-8" y2="-3.7" width="0.127" layer="21" curve="-120"/>
<wire x1="8" y1="-3.7" x2="2.2" y2="-6.4" width="0.127" layer="21" curve="-120"/>
<wire x1="-2.2" y1="-6.4" x2="2.2" y2="-6.4" width="0.127" layer="21" curve="-90"/>
<wire x1="-3.299990625" y1="7.808" x2="-3.299990625" y2="8.099990625" width="0.127" layer="21"/>
<wire x1="-3.299990625" y1="8.099990625" x2="-2.9" y2="8.1" width="0.127" layer="21"/>
<wire x1="-2.9" y1="8.1" x2="2.6" y2="8.1" width="0.127" layer="21"/>
<wire x1="2.6" y1="8.1" x2="2.999990625" y2="8.099990625" width="0.127" layer="21"/>
<wire x1="2.999990625" y1="8.099990625" x2="2.999990625" y2="7.808" width="0.127" layer="21"/>
<text x="-7.62" y="-10.16" size="1.27" layer="21">&gt;VALUE</text>
<text x="3.81" y="-10.16" size="1.27" layer="21">&gt;NAME</text>
<circle x="0" y="0" radius="8" width="0.127" layer="21"/>
<smd name="P$3" x="0" y="0" dx="6.35" dy="6.35" layer="1" roundness="100"/>
<smd name="P$1" x="-10.214" y="-0.5" dx="3.2" dy="2.5" layer="1"/>
<smd name="P$2" x="10.214" y="-0.5" dx="3.2" dy="2.5" layer="1" rot="R180"/>
</package>
</packages>
</library>
<library name="led" urn="urn:adsk.eagle:library:259">
<description>&lt;b&gt;LEDs&lt;/b&gt;&lt;p&gt;
&lt;author&gt;Created by librarian@cadsoft.de&lt;/author&gt;&lt;br&gt;
Extended by Federico Battaglin &lt;author&gt;&amp;lt;federico.rd@fdpinternational.com&amp;gt;&lt;/author&gt; with DUOLED</description>
<packages>
<package name="SML0805" urn="urn:adsk.eagle:footprint:15683/1" library_version="2">
<description>&lt;b&gt;SML0805-2CW-TR (0805 PROFILE)&lt;/b&gt; COOL WHITE&lt;p&gt;
Source: http://www.ledtronics.com/ds/smd-0603/Dstr0093.pdf</description>
<wire x1="-0.95" y1="-0.55" x2="0.95" y2="-0.55" width="0.1016" layer="51"/>
<wire x1="0.95" y1="-0.55" x2="0.95" y2="0.55" width="0.1016" layer="51"/>
<wire x1="0.95" y1="0.55" x2="-0.95" y2="0.55" width="0.1016" layer="51"/>
<wire x1="-0.95" y1="0.55" x2="-0.95" y2="-0.55" width="0.1016" layer="51"/>
<wire x1="-0.175" y1="-0.025" x2="0" y2="0.15" width="0.0634" layer="21"/>
<wire x1="0" y1="0.15" x2="0.15" y2="0" width="0.0634" layer="21"/>
<wire x1="0.15" y1="0" x2="-0.025" y2="-0.175" width="0.0634" layer="21"/>
<wire x1="-0.025" y1="-0.175" x2="-0.175" y2="-0.025" width="0.0634" layer="21"/>
<circle x="-0.275" y="0.4" radius="0.125" width="0" layer="21"/>
<smd name="C" x="-1.05" y="0" dx="1.2" dy="1.2" layer="1"/>
<smd name="A" x="1.05" y="0" dx="1.2" dy="1.2" layer="1"/>
<text x="-1.5" y="1" size="1.27" layer="25">&gt;NAME</text>
<text x="-1.5" y="-2" size="1.27" layer="27">&gt;VALUE</text>
</package>
</packages>
<packages3d>
<package3d name="SML0805" urn="urn:adsk.eagle:package:15830/1" type="box" library_version="2">
<description>SML0805-2CW-TR (0805 PROFILE) COOL WHITE
Source: http://www.ledtronics.com/ds/smd-0603/Dstr0093.pdf</description>
<packageinstances>
<packageinstance name="SML0805"/>
</packageinstances>
</package3d>
</packages3d>
</library>
</libraries>
<attributes>
</attributes>
<variantdefs>
</variantdefs>
<classes>
<class number="0" name="default" width="0" drill="0">
</class>
</classes>
<designrules name="default">
<description language="de">&lt;b&gt;EAGLE Design Rules&lt;/b&gt;
&lt;p&gt;
Die Standard-Design-Rules sind so gewählt, dass sie für 
die meisten Anwendungen passen. Sollte ihre Platine 
besondere Anforderungen haben, treffen Sie die erforderlichen
Einstellungen hier und speichern die Design Rules unter 
einem neuen Namen ab.</description>
<description language="en">&lt;b&gt;EAGLE Design Rules&lt;/b&gt;
&lt;p&gt;
The default Design Rules have been set to cover
a wide range of applications. Your particular design
may have different requirements, so please make the
necessary adjustments and save your customized
design rules under a new name.</description>
<param name="layerSetup" value="(1*16)"/>
<param name="mtCopper" value="0.035mm 0.035mm 0.035mm 0.035mm 0.035mm 0.035mm 0.035mm 0.035mm 0.035mm 0.035mm 0.035mm 0.035mm 0.035mm 0.035mm 0.035mm 0.035mm"/>
<param name="mtIsolate" value="1.5mm 0.15mm 0.2mm 0.15mm 0.2mm 0.15mm 0.2mm 0.15mm 0.2mm 0.15mm 0.2mm 0.15mm 0.2mm 0.15mm 0.2mm"/>
<param name="mdWireWire" value="6mil"/>
<param name="mdWirePad" value="6mil"/>
<param name="mdWireVia" value="6mil"/>
<param name="mdPadPad" value="6mil"/>
<param name="mdPadVia" value="6mil"/>
<param name="mdViaVia" value="6mil"/>
<param name="mdSmdPad" value="6mil"/>
<param name="mdSmdVia" value="6mil"/>
<param name="mdSmdSmd" value="6mil"/>
<param name="mdViaViaSameLayer" value="6mil"/>
<param name="mnLayersViaInSmd" value="2"/>
<param name="mdCopperDimension" value="40mil"/>
<param name="mdDrill" value="6mil"/>
<param name="mdSmdStop" value="0mil"/>
<param name="msWidth" value="6mil"/>
<param name="msDrill" value="0.35mm"/>
<param name="msMicroVia" value="9.99mm"/>
<param name="msBlindViaRatio" value="0.5"/>
<param name="rvPadTop" value="0.25"/>
<param name="rvPadInner" value="0.25"/>
<param name="rvPadBottom" value="0.25"/>
<param name="rvViaOuter" value="0.25"/>
<param name="rvViaInner" value="0.25"/>
<param name="rvMicroViaOuter" value="0.25"/>
<param name="rvMicroViaInner" value="0.25"/>
<param name="rlMinPadTop" value="10mil"/>
<param name="rlMaxPadTop" value="20mil"/>
<param name="rlMinPadInner" value="10mil"/>
<param name="rlMaxPadInner" value="20mil"/>
<param name="rlMinPadBottom" value="10mil"/>
<param name="rlMaxPadBottom" value="20mil"/>
<param name="rlMinViaOuter" value="8mil"/>
<param name="rlMaxViaOuter" value="20mil"/>
<param name="rlMinViaInner" value="8mil"/>
<param name="rlMaxViaInner" value="20mil"/>
<param name="rlMinMicroViaOuter" value="4mil"/>
<param name="rlMaxMicroViaOuter" value="20mil"/>
<param name="rlMinMicroViaInner" value="4mil"/>
<param name="rlMaxMicroViaInner" value="20mil"/>
<param name="psTop" value="-1"/>
<param name="psBottom" value="-1"/>
<param name="psFirst" value="-1"/>
<param name="psElongationLong" value="100"/>
<param name="psElongationOffset" value="100"/>
<param name="mvStopFrame" value="1"/>
<param name="mvCreamFrame" value="0"/>
<param name="mlMinStopFrame" value="4mil"/>
<param name="mlMaxStopFrame" value="4mil"/>
<param name="mlMinCreamFrame" value="0mil"/>
<param name="mlMaxCreamFrame" value="0mil"/>
<param name="mlViaStopLimit" value="0mil"/>
<param name="srRoundness" value="0"/>
<param name="srMinRoundness" value="0mil"/>
<param name="srMaxRoundness" value="0mil"/>
<param name="slThermalIsolate" value="10mil"/>
<param name="slThermalsForVias" value="0"/>
<param name="dpMaxLengthDifference" value="10mm"/>
<param name="dpGapFactor" value="2.5"/>
<param name="checkAngle" value="0"/>
<param name="checkFont" value="1"/>
<param name="checkRestrict" value="1"/>
<param name="checkStop" value="0"/>
<param name="checkValues" value="0"/>
<param name="checkNames" value="1"/>
<param name="checkWireStubs" value="1"/>
<param name="checkPolygonWidth" value="0"/>
<param name="useDiameter" value="13"/>
<param name="maxErrors" value="50"/>
</designrules>
<autorouter>
<pass name="Default">
<param name="RoutingGrid" value="50mil"/>
<param name="AutoGrid" value="1"/>
<param name="Efforts" value="0"/>
<param name="TopRouterVariant" value="1"/>
<param name="tpViaShape" value="round"/>
<param name="PrefDir.1" value="a"/>
<param name="PrefDir.2" value="0"/>
<param name="PrefDir.3" value="0"/>
<param name="PrefDir.4" value="0"/>
<param name="PrefDir.5" value="0"/>
<param name="PrefDir.6" value="0"/>
<param name="PrefDir.7" value="0"/>
<param name="PrefDir.8" value="0"/>
<param name="PrefDir.9" value="0"/>
<param name="PrefDir.10" value="0"/>
<param name="PrefDir.11" value="0"/>
<param name="PrefDir.12" value="0"/>
<param name="PrefDir.13" value="0"/>
<param name="PrefDir.14" value="0"/>
<param name="PrefDir.15" value="0"/>
<param name="PrefDir.16" value="a"/>
<param name="cfVia" value="8"/>
<param name="cfNonPref" value="5"/>
<param name="cfChangeDir" value="2"/>
<param name="cfOrthStep" value="2"/>
<param name="cfDiagStep" value="3"/>
<param name="cfExtdStep" value="0"/>
<param name="cfBonusStep" value="1"/>
<param name="cfMalusStep" value="1"/>
<param name="cfPadImpact" value="4"/>
<param name="cfSmdImpact" value="4"/>
<param name="cfBusImpact" value="0"/>
<param name="cfHugging" value="3"/>
<param name="cfAvoid" value="4"/>
<param name="cfPolygon" value="10"/>
<param name="cfBase.1" value="0"/>
<param name="cfBase.2" value="1"/>
<param name="cfBase.3" value="1"/>
<param name="cfBase.4" value="1"/>
<param name="cfBase.5" value="1"/>
<param name="cfBase.6" value="1"/>
<param name="cfBase.7" value="1"/>
<param name="cfBase.8" value="1"/>
<param name="cfBase.9" value="1"/>
<param name="cfBase.10" value="1"/>
<param name="cfBase.11" value="1"/>
<param name="cfBase.12" value="1"/>
<param name="cfBase.13" value="1"/>
<param name="cfBase.14" value="1"/>
<param name="cfBase.15" value="1"/>
<param name="cfBase.16" value="0"/>
<param name="mnVias" value="20"/>
<param name="mnSegments" value="9999"/>
<param name="mnExtdSteps" value="9999"/>
<param name="mnRipupLevel" value="10"/>
<param name="mnRipupSteps" value="100"/>
<param name="mnRipupTotal" value="100"/>
</pass>
<pass name="Follow-me" refer="Default" active="yes">
</pass>
<pass name="Busses" refer="Default" active="yes">
<param name="cfNonPref" value="4"/>
<param name="cfBusImpact" value="4"/>
<param name="cfHugging" value="0"/>
<param name="mnVias" value="0"/>
</pass>
<pass name="Route" refer="Default" active="yes">
</pass>
<pass name="Optimize1" refer="Default" active="yes">
<param name="cfVia" value="99"/>
<param name="cfExtdStep" value="10"/>
<param name="cfHugging" value="1"/>
<param name="mnExtdSteps" value="1"/>
<param name="mnRipupLevel" value="0"/>
</pass>
<pass name="Optimize2" refer="Optimize1" active="yes">
<param name="cfNonPref" value="0"/>
<param name="cfChangeDir" value="6"/>
<param name="cfExtdStep" value="0"/>
<param name="cfBonusStep" value="2"/>
<param name="cfMalusStep" value="2"/>
<param name="cfPadImpact" value="2"/>
<param name="cfSmdImpact" value="2"/>
<param name="cfHugging" value="0"/>
</pass>
<pass name="Optimize3" refer="Optimize2" active="yes">
<param name="cfChangeDir" value="8"/>
<param name="cfPadImpact" value="0"/>
<param name="cfSmdImpact" value="0"/>
</pass>
<pass name="Optimize4" refer="Optimize3" active="yes">
<param name="cfChangeDir" value="25"/>
</pass>
</autorouter>
<elements>
<element name="FRAME1" library="SparkFun-Aesthetics" library_urn="urn:adsk.eagle:library:507" package="DUMMY" package3d_urn="urn:adsk.eagle:package:37104/1" value="FRAME-LETTERNO_PACKAGE" x="60.96" y="57.15" smashed="yes">
<attribute name="DESIGNER" value="Nobody" x="60.96" y="57.15" size="1.778" layer="27" display="off"/>
<attribute name="VERSION" value="v01" x="60.96" y="57.15" size="1.778" layer="27" display="off"/>
</element>
<element name="TOP" library="SparkFun-Connectors" library_urn="urn:adsk.eagle:library:513" package="1X08_FEMALE_LOCK" package3d_urn="urn:adsk.eagle:package:38151/1" value="" x="12.065" y="34.29" smashed="yes">
<attribute name="NAME" x="10.668" y="33.655" size="0.6096" layer="25" font="vector" ratio="20" rot="R90"/>
<attribute name="PROD_ID" value="CONN-09233" x="12.065" y="34.29" size="1.778" layer="27" display="off"/>
<attribute name="SF_ID" value="PRT-09279" x="12.065" y="34.29" size="1.778" layer="27" display="off"/>
<attribute name="VALUE" x="10.795" y="32.258" size="0.6096" layer="27" font="vector" ratio="20"/>
</element>
<element name="BOTTOM" library="SparkFun-Connectors" library_urn="urn:adsk.eagle:library:513" package="1X07_LOCK" package3d_urn="urn:adsk.eagle:package:38132/1" value="" x="12.065" y="6.35" smashed="yes">
<attribute name="NAME" x="10.3505" y="5.3975" size="0.6096" layer="25" font="vector" ratio="20" rot="R90"/>
<attribute name="VALUE" x="10.795" y="4.318" size="0.6096" layer="27" font="vector" ratio="20"/>
</element>
<element name="U$1" library="SparkFun-Aesthetics" library_urn="urn:adsk.eagle:library:507" package="OSHW-LOGO-L" package3d_urn="urn:adsk.eagle:package:37097/1" value="" x="5.715" y="20.32" smashed="yes" rot="MR90"/>
<element name="ATMEGA" library="SparkFun-IC-Microcontroller" library_urn="urn:adsk.eagle:library:525" package="TQFP32-08" package3d_urn="urn:adsk.eagle:package:38945/1" value="ATMEGA328P_TQFP" x="29.5148" y="18.4277" smashed="yes" rot="R90">
<attribute name="NAME" x="23.7998" y="18.4277" size="0.6096" layer="25" font="vector" ratio="20" rot="R90" align="bottom-center"/>
<attribute name="PROD_ID" value="IC-09069" x="16.0274" y="8.3693" size="1.778" layer="27" rot="R90" display="off"/>
</element>
<element name="C1" library="SparkFun-Capacitors" library_urn="urn:adsk.eagle:library:510" package="0805" package3d_urn="urn:adsk.eagle:package:37429/1" value="0.1uF" x="28.321" y="11.7983" smashed="yes" rot="R180">
<attribute name="NAME" x="28.321" y="10.9093" size="0.6096" layer="25" font="vector" ratio="20" rot="R180" align="bottom-center"/>
<attribute name="PROD_ID" value="CAP-08469" x="54.0004" y="-1.6891" size="1.778" layer="27" rot="R180" display="off"/>
<attribute name="VALUE" x="28.321" y="12.6873" size="0.6096" layer="27" font="vector" ratio="20" rot="R180" align="top-center"/>
</element>
<element name="RTC" library="adafruit" library_urn="urn:adsk.eagle:library:420" package="SO16W" value="DS3231/SO" x="12.7" y="20.32" smashed="yes" rot="R180"/>
<element name="R2" library="SparkFun-Resistors" library_urn="urn:adsk.eagle:library:532" package="0805" package3d_urn="urn:adsk.eagle:package:39651/1" value="PULLUP" x="19.685" y="30.8229" smashed="yes" rot="R270">
<attribute name="NAME" x="20.574" y="30.8229" size="0.6096" layer="25" font="vector" ratio="20" rot="R270" align="bottom-center"/>
<attribute name="PROD_ID" value="RES-11622" x="41.6814" y="60.8711" size="1.778" layer="27" rot="R270" display="off"/>
<attribute name="VALUE" x="18.796" y="30.8229" size="0.6096" layer="27" font="vector" ratio="20" rot="R270" align="top-center"/>
</element>
<element name="R3" library="SparkFun-Resistors" library_urn="urn:adsk.eagle:library:532" package="0805" package3d_urn="urn:adsk.eagle:package:39651/1" value="PULLUP" x="19.685" y="9.7155" smashed="yes" rot="R90">
<attribute name="NAME" x="18.796" y="9.7155" size="0.6096" layer="25" font="vector" ratio="20" rot="R90" align="bottom-center"/>
<attribute name="PROD_ID" value="RES-11622" x="1.1938" y="-23.4061" size="1.778" layer="27" rot="R90" display="off"/>
<attribute name="VALUE" x="20.574" y="9.7155" size="0.6096" layer="27" font="vector" ratio="20" rot="R90" align="top-center"/>
</element>
<element name="C3" library="SparkFun-Capacitors" library_urn="urn:adsk.eagle:library:510" package="0805" package3d_urn="urn:adsk.eagle:package:37429/1" value="0.1uF" x="14.4272" y="27.94" smashed="yes" rot="R180">
<attribute name="NAME" x="14.4272" y="27.051" size="0.6096" layer="25" font="vector" ratio="20" rot="R180" align="bottom-center"/>
<attribute name="PROD_ID" value="CAP-08469" x="38.3286" y="12.954" size="1.778" layer="27" rot="R180" display="off"/>
<attribute name="VALUE" x="14.4272" y="28.829" size="0.6096" layer="27" font="vector" ratio="20" rot="R180" align="top-center"/>
</element>
<element name="R4" library="SparkFun-Resistors" library_urn="urn:adsk.eagle:library:532" package="0805" package3d_urn="urn:adsk.eagle:package:39651/1" value="10k" x="13.6525" y="30.81655" smashed="yes" rot="R180">
<attribute name="NAME" x="13.6525" y="29.92755" size="0.6096" layer="25" font="vector" ratio="20" rot="R180" align="bottom-center"/>
<attribute name="PROD_ID" value="RES-11622" x="49.8475" y="26.34615" size="1.778" layer="27" rot="R180" display="off"/>
<attribute name="VALUE" x="13.6525" y="31.70555" size="0.6096" layer="27" font="vector" ratio="20" rot="R180" align="top-center"/>
</element>
<element name="U$2" library="CR1632" package="CR1632-SMD" value="CR1632CR1632-SMD" x="11.43" y="20.32" smashed="yes" rot="MR90">
<attribute name="AVAILABILITY" value="Unavailable" x="11.43" y="20.32" size="1.778" layer="28" rot="MR90" display="off"/>
<attribute name="DESCRIPTION" value=" Coin Cell, Lithium, 3v, 120mah, Cr1632 " x="11.43" y="20.32" size="1.778" layer="28" rot="MR90" display="off"/>
<attribute name="MF" value="Panasonic -" x="11.43" y="20.32" size="1.778" layer="28" rot="MR90" display="off"/>
<attribute name="MP" value="CR1632" x="11.43" y="20.32" size="1.778" layer="28" rot="MR90" display="off"/>
<attribute name="PACKAGE" value="0805 Multicomp" x="11.43" y="20.32" size="1.778" layer="28" rot="MR90" display="off"/>
<attribute name="PRICE" value="None" x="11.43" y="20.32" size="1.778" layer="28" rot="MR90" display="off"/>
</element>
<element name="J1" library="SparkFun-Connectors" library_urn="urn:adsk.eagle:library:513" package="2X3_LOCK" package3d_urn="urn:adsk.eagle:package:38010/1" value="AVR_SPI_PROG_3X22X3_LOCK" x="27.6225" y="26.67" smashed="yes">
<attribute name="NAME" x="24.5745" y="28.702" size="0.6096" layer="25" font="vector" ratio="20"/>
</element>
<element name="R1" library="SparkFun-Resistors" library_urn="urn:adsk.eagle:library:532" package="0805" package3d_urn="urn:adsk.eagle:package:39651/1" value="10k" x="24.4475" y="28.8925" smashed="yes" rot="R270">
<attribute name="NAME" x="25.3365" y="28.8925" size="0.6096" layer="25" font="vector" ratio="20" rot="R270" align="bottom-center"/>
<attribute name="PROD_ID" value="RES-11622" x="24.4475" y="28.8925" size="1.778" layer="27" rot="R270" display="off"/>
<attribute name="VALUE" x="23.5585" y="28.8925" size="0.6096" layer="27" font="vector" ratio="20" rot="R270" align="top-center"/>
</element>
<element name="D5/PIN9" library="led" library_urn="urn:adsk.eagle:library:259" package="SML0805" package3d_urn="urn:adsk.eagle:package:15830/1" value="" x="33.3375" y="11.7475" smashed="yes">
<attribute name="NAME" x="33.171" y="10.652" size="0.3175" layer="25" font="vector" ratio="12"/>
<attribute name="VALUE" x="31.8375" y="9.7475" size="1.27" layer="27"/>
</element>
<element name="R5" library="SparkFun-Resistors" library_urn="urn:adsk.eagle:library:532" package="0805" package3d_urn="urn:adsk.eagle:package:39651/1" value="470" x="35.8775" y="14.9225" smashed="yes" rot="R270">
<attribute name="NAME" x="36.7665" y="13.7795" size="0.6096" layer="25" font="vector" ratio="20" rot="R270" align="bottom-center"/>
<attribute name="PROD_ID" value="RES-11622" x="35.8775" y="14.9225" size="1.778" layer="27" rot="R270" display="off"/>
<attribute name="VALUE" x="37.4015" y="15.6845" size="0.6096" layer="27" font="vector" ratio="20" rot="R270" align="top-center"/>
</element>
</elements>
<signals>
<signal name="VREG">
<contactref element="TOP" pad="1"/>
<contactref element="C1" pad="1"/>
<contactref element="ATMEGA" pad="6"/>
<contactref element="ATMEGA" pad="4"/>
<contactref element="RTC" pad="2"/>
<contactref element="C3" pad="1"/>
<contactref element="R3" pad="2"/>
<contactref element="R2" pad="2"/>
<contactref element="R4" pad="2"/>
<contactref element="J1" pad="2"/>
<contactref element="R1" pad="1"/>
<wire x1="12.7525" y1="30.81655" x2="12.065" y2="31.50405" width="0.1524" layer="1"/>
<wire x1="12.065" y1="31.50405" x2="12.065" y2="34.5186" width="0.1524" layer="1"/>
<wire x1="15.3272" y1="27.94" x2="15.3272" y2="27.2178" width="0.1524" layer="1"/>
<wire x1="15.875" y1="26.67" x2="15.875" y2="24.92" width="0.1524" layer="1"/>
<wire x1="15.3272" y1="27.2178" x2="15.875" y2="26.67" width="0.1524" layer="1"/>
<wire x1="12.7525" y1="30.81655" x2="13.716" y2="29.85305" width="0.1524" layer="1"/>
<wire x1="13.716" y1="29.85305" x2="13.716" y2="29.464" width="0.1524" layer="1"/>
<via x="13.716" y="29.464" extent="1-16" drill="0.35"/>
<wire x1="13.716" y1="29.464" x2="15.9385" y2="29.464" width="0.1524" layer="16"/>
<wire x1="15.9385" y1="29.464" x2="16.51" y2="28.8925" width="0.1524" layer="16"/>
<wire x1="16.51" y1="28.8925" x2="16.51" y2="27.94" width="0.1524" layer="16"/>
<via x="16.51" y="27.94" extent="1-16" drill="0.35"/>
<wire x1="15.3272" y1="27.94" x2="16.51" y2="27.94" width="0.1524" layer="1"/>
<wire x1="16.51" y1="27.94" x2="18.4929" y2="29.9229" width="0.1524" layer="1"/>
<wire x1="18.4929" y1="29.9229" x2="19.685" y2="29.9229" width="0.1524" layer="1"/>
<wire x1="19.685" y1="29.9229" x2="24.3171" y2="29.9229" width="0.1524" layer="1"/>
<wire x1="24.3171" y1="29.9229" x2="24.4475" y2="29.7925" width="0.1524" layer="1"/>
<wire x1="29.1148" y1="14.1351" x2="29.221" y2="14.0289" width="0.1524" layer="1"/>
<wire x1="29.221" y1="14.0289" x2="29.221" y2="11.7983" width="0.1524" layer="1"/>
<wire x1="29.221" y1="11.7983" x2="29.9085" y2="11.7983" width="0.1524" layer="1"/>
<wire x1="29.9085" y1="11.7983" x2="30.7148" y2="12.6046" width="0.1524" layer="1"/>
<wire x1="30.7148" y1="12.6046" x2="30.7148" y2="14.1351" width="0.1524" layer="1"/>
<wire x1="24.4475" y1="29.7925" x2="27.167" y2="29.7925" width="0.1524" layer="1"/>
<wire x1="27.167" y1="29.7925" x2="27.6225" y2="29.337" width="0.1524" layer="1"/>
<wire x1="19.685" y1="10.6155" x2="21.2725" y2="9.028" width="0.1524" layer="1"/>
<wire x1="21.2725" y1="9.028" x2="21.2725" y2="8.89" width="0.1524" layer="1"/>
<via x="21.2725" y="8.89" extent="1-16" drill="0.35"/>
<wire x1="21.2725" y1="8.89" x2="29.21" y2="8.89" width="0.1524" layer="16"/>
<via x="29.21" y="8.89" extent="1-16" drill="0.35"/>
<wire x1="29.21" y1="8.89" x2="29.21" y2="11.7873" width="0.1524" layer="1"/>
<wire x1="29.21" y1="11.7873" x2="29.221" y2="11.7983" width="0.1524" layer="1"/>
<wire x1="27.6225" y1="29.337" x2="26.3525" y2="28.067" width="0.1524" layer="16"/>
<wire x1="29.083" y1="9.017" x2="29.21" y2="8.89" width="0.1524" layer="16"/>
<wire x1="26.3525" y1="28.067" x2="26.3525" y2="26.035" width="0.1524" layer="16"/>
<wire x1="26.3525" y1="26.035" x2="29.083" y2="23.3045" width="0.1524" layer="16"/>
<wire x1="29.083" y1="23.3045" x2="29.083" y2="9.017" width="0.1524" layer="16"/>
</signal>
<signal name="SDA">
<contactref element="TOP" pad="4"/>
<contactref element="ATMEGA" pad="27"/>
<contactref element="RTC" pad="15"/>
<contactref element="R2" pad="1"/>
<wire x1="25.2222" y1="19.6277" x2="24.13" y2="19.6277" width="0.1524" layer="1"/>
<wire x1="24.13" y1="19.6277" x2="19.685" y2="24.0727" width="0.1524" layer="1"/>
<wire x1="19.685" y1="24.0727" x2="19.685" y2="27.94" width="0.1524" layer="1"/>
<via x="19.685" y="27.94" extent="1-16" drill="0.35"/>
<wire x1="15.875" y1="15.72" x2="15.875" y2="17.4625" width="0.1524" layer="1"/>
<wire x1="15.875" y1="17.4625" x2="18.0402" y2="19.6277" width="0.1524" layer="1"/>
<wire x1="18.0402" y1="19.6277" x2="24.13" y2="19.6277" width="0.1524" layer="1"/>
<wire x1="19.685" y1="34.0614" x2="19.685" y2="27.94" width="0.1524" layer="16"/>
<wire x1="19.685" y1="34.0614" x2="19.685" y2="31.7229" width="0.1524" layer="1"/>
</signal>
<signal name="QOWI">
<contactref element="TOP" pad="5"/>
<contactref element="ATMEGA" pad="15"/>
<contactref element="J1" pad="4"/>
<wire x1="35.2425" y1="28.2575" x2="35.2425" y2="20.955" width="0.1524" layer="1"/>
<wire x1="35.2425" y1="20.955" x2="34.7152" y2="20.4277" width="0.1524" layer="1"/>
<wire x1="34.7152" y1="20.4277" x2="33.8074" y2="20.4277" width="0.1524" layer="1"/>
<wire x1="35.2425" y1="28.2575" x2="34.6075" y2="28.8925" width="0.1524" layer="1"/>
<via x="34.6075" y="28.8925" extent="1-16" drill="0.35"/>
<wire x1="24.28103125" y1="35.2298" x2="25.0698" y2="35.2298" width="0.1524" layer="1"/>
<wire x1="25.0698" y1="35.2298" x2="25.0825" y2="35.2425" width="0.1524" layer="1"/>
<wire x1="22.225" y1="34.5186" x2="23.56983125" y2="34.5186" width="0.1524" layer="1"/>
<wire x1="23.56983125" y1="34.5186" x2="24.28103125" y2="35.2298" width="0.1524" layer="1"/>
<wire x1="30.1625" y1="30.1625" x2="30.1625" y2="29.083" width="0.1524" layer="1"/>
<wire x1="25.0825" y1="35.2425" x2="25.0952" y2="35.2298" width="0.1524" layer="1"/>
<wire x1="25.0952" y1="35.2298" x2="25.24896875" y2="35.2298" width="0.1524" layer="1"/>
<wire x1="26.1366" y1="34.03463125" x2="26.82103125" y2="33.3502" width="0.1524" layer="1"/>
<wire x1="26.82103125" y1="33.3502" x2="26.9748" y2="33.3502" width="0.1524" layer="1"/>
<wire x1="26.9748" y1="33.3502" x2="30.1625" y2="30.1625" width="0.1524" layer="1"/>
<wire x1="25.24896875" y1="35.2298" x2="26.1366" y2="34.34216875" width="0.1524" layer="1"/>
<wire x1="26.1366" y1="34.34216875" x2="26.1366" y2="34.03463125" width="0.1524" layer="1"/>
<wire x1="34.6075" y1="28.8925" x2="33.9725" y2="28.8925" width="0.1524" layer="16"/>
<wire x1="33.9725" y1="28.8925" x2="33.8709" y2="28.9941" width="0.1524" layer="16"/>
<wire x1="33.8709" y1="28.9941" x2="33.8709" y2="29.82096875" width="0.1524" layer="16"/>
<wire x1="33.8709" y1="29.82096875" x2="33.18646875" y2="30.5054" width="0.1524" layer="16"/>
<wire x1="31.5849" y1="30.5054" x2="30.1625" y2="29.083" width="0.1524" layer="16"/>
<wire x1="33.18646875" y1="30.5054" x2="31.5849" y2="30.5054" width="0.1524" layer="16"/>
</signal>
<signal name="WOQI">
<contactref element="TOP" pad="6"/>
<contactref element="ATMEGA" pad="16"/>
<contactref element="J1" pad="1"/>
<wire x1="33.8074" y1="21.2277" x2="34.5627" y2="21.2277" width="0.1524" layer="1"/>
<wire x1="34.5627" y1="21.2277" x2="34.925" y2="21.59" width="0.1524" layer="1"/>
<wire x1="34.925" y1="21.59" x2="34.925" y2="27.94" width="0.1524" layer="1"/>
<wire x1="34.925" y1="27.94" x2="34.6075" y2="27.94" width="0.1524" layer="1"/>
<via x="34.6075" y="27.94" extent="1-16" drill="0.35"/>
<wire x1="27.6225" y1="27.68463125" x2="27.6225" y2="26.797" width="0.1524" layer="1"/>
<wire x1="28.7909" y1="28.85303125" x2="27.6225" y2="27.68463125" width="0.1524" layer="1"/>
<wire x1="28.7909" y1="30.0355" x2="28.7909" y2="28.85303125" width="0.1524" layer="1"/>
<wire x1="24.765" y1="34.0614" x2="28.7909" y2="30.0355" width="0.1524" layer="1"/>
<wire x1="28.6385" y1="27.813" x2="27.6225" y2="26.797" width="0.1524" layer="16"/>
<wire x1="34.6075" y1="27.94" x2="34.5821" y2="27.9654" width="0.1524" layer="16"/>
<wire x1="34.5821" y1="27.9654" x2="30.69726875" y2="27.9654" width="0.1524" layer="16"/>
<wire x1="30.54486875" y1="27.813" x2="28.6385" y2="27.813" width="0.1524" layer="16"/>
<wire x1="30.69726875" y1="27.9654" x2="30.54486875" y2="27.813" width="0.1524" layer="16"/>
</signal>
<signal name="SS">
<contactref element="TOP" pad="8"/>
<contactref element="ATMEGA" pad="14"/>
<wire x1="29.845" y1="34.0614" x2="30.7975" y2="33.1089" width="0.1524" layer="1"/>
<wire x1="30.7975" y1="33.1089" x2="30.7975" y2="32.385" width="0.1524" layer="1"/>
<wire x1="30.7975" y1="32.385" x2="31.1023" y2="32.0802" width="0.1524" layer="1"/>
<wire x1="31.1023" y1="32.0802" x2="32.88166875" y2="32.0802" width="0.1524" layer="1"/>
<wire x1="32.88166875" y1="32.0802" x2="35.8648" y2="29.09706875" width="0.1524" layer="1"/>
<wire x1="34.8677" y1="19.6277" x2="33.8074" y2="19.6277" width="0.1524" layer="1"/>
<wire x1="35.8648" y1="29.09706875" x2="35.8648" y2="20.6248" width="0.1524" layer="1"/>
<wire x1="35.8648" y1="20.6248" x2="34.8677" y2="19.6277" width="0.1524" layer="1"/>
</signal>
<signal name="GND">
<contactref element="BOTTOM" pad="7"/>
<contactref element="ATMEGA" pad="5"/>
<contactref element="ATMEGA" pad="3"/>
<contactref element="ATMEGA" pad="21"/>
<contactref element="C1" pad="2"/>
<contactref element="RTC" pad="12"/>
<contactref element="RTC" pad="11"/>
<contactref element="RTC" pad="10"/>
<contactref element="RTC" pad="9"/>
<contactref element="RTC" pad="5"/>
<contactref element="RTC" pad="6"/>
<contactref element="RTC" pad="7"/>
<contactref element="RTC" pad="8"/>
<contactref element="C3" pad="2"/>
<contactref element="RTC" pad="13"/>
<contactref element="U$2" pad="P$3"/>
<contactref element="J1" pad="6"/>
<contactref element="D5/PIN9" pad="C"/>
<wire x1="8.255" y1="24.92" x2="9.525" y2="24.92" width="0.1524" layer="1"/>
<wire x1="9.525" y1="24.92" x2="10.795" y2="24.92" width="0.1524" layer="1"/>
<wire x1="10.795" y1="24.92" x2="12.065" y2="24.92" width="0.1524" layer="1"/>
<wire x1="13.5272" y1="27.94" x2="13.4002" y2="27.813" width="0.1524" layer="1"/>
<wire x1="13.4002" y1="27.813" x2="12.827" y2="27.813" width="0.1524" layer="1"/>
<wire x1="12.827" y1="27.813" x2="12.065" y2="27.051" width="0.1524" layer="1"/>
<wire x1="12.065" y1="27.051" x2="12.065" y2="24.92" width="0.1524" layer="1"/>
<wire x1="8.255" y1="15.72" x2="9.525" y2="15.72" width="0.1524" layer="1"/>
<wire x1="9.525" y1="15.72" x2="10.795" y2="15.72" width="0.1524" layer="1"/>
<wire x1="10.795" y1="15.72" x2="12.065" y2="15.72" width="0.1524" layer="1"/>
<wire x1="12.065" y1="15.72" x2="13.335" y2="15.72" width="0.1524" layer="1"/>
<wire x1="8.255" y1="24.92" x2="7.3025" y2="23.9675" width="0.1524" layer="1"/>
<wire x1="7.3025" y1="23.9675" x2="7.3025" y2="23.495" width="0.1524" layer="1"/>
<via x="7.3025" y="23.495" extent="1-16" drill="0.35"/>
<wire x1="7.3025" y1="23.495" x2="7.3025" y2="22.9235" width="0.1524" layer="16"/>
<wire x1="9.906" y1="20.32" x2="11.43" y2="20.32" width="0.1524" layer="16"/>
<wire x1="7.3025" y1="22.9235" x2="9.906" y2="20.32" width="0.1524" layer="16"/>
<wire x1="8.255" y1="15.72" x2="7.3025" y2="16.6725" width="0.1524" layer="1"/>
<wire x1="7.3025" y1="16.6725" x2="7.3025" y2="17.145" width="0.1524" layer="1"/>
<via x="7.3025" y="17.145" extent="1-16" drill="0.35"/>
<wire x1="7.3025" y1="17.145" x2="7.3025" y2="17.78" width="0.1524" layer="16"/>
<wire x1="7.3025" y1="17.78" x2="9.8425" y2="20.32" width="0.1524" layer="16"/>
<wire x1="9.8425" y1="20.32" x2="9.906" y2="20.32" width="0.1524" layer="16"/>
<wire x1="27.305" y1="6.477" x2="26.9875" y2="6.7945" width="0.1524" layer="1"/>
<wire x1="26.9875" y1="9.398" x2="26.9875" y2="6.7945" width="0.1524" layer="1"/>
<wire x1="26.9875" y1="9.398" x2="27.4955" y2="9.906" width="0.1524" layer="1"/>
<wire x1="27.4955" y1="9.906" x2="27.4955" y2="11.7238" width="0.1524" layer="1"/>
<wire x1="27.4955" y1="11.7238" x2="27.421" y2="11.7983" width="0.1524" layer="1"/>
<wire x1="29.9148" y1="14.1351" x2="29.9148" y2="16.1602875" width="0.1524" layer="1"/>
<wire x1="29.1148" y1="16.9602875" x2="29.1148" y2="22.7203" width="0.1524" layer="1"/>
<wire x1="29.9148" y1="16.1602875" x2="29.1148" y2="16.9602875" width="0.1524" layer="1"/>
<wire x1="27.421" y1="11.7983" x2="28.3148" y2="12.6921" width="0.1524" layer="1"/>
<wire x1="28.3148" y1="12.6921" x2="28.3148" y2="14.1351" width="0.1524" layer="1"/>
<wire x1="28.3148" y1="14.1351" x2="28.3148" y2="16.1602875" width="0.1524" layer="1"/>
<wire x1="28.3148" y1="16.1602875" x2="29.1148" y2="16.9602875" width="0.1524" layer="1"/>
<wire x1="29.9148" y1="16.1602875" x2="30.5175875" y2="15.5575" width="0.1524" layer="1"/>
<wire x1="32.385" y1="15.5575" x2="33.2105" y2="14.732" width="0.1524" layer="1"/>
<wire x1="33.2105" y1="12.6705" x2="32.2875" y2="11.7475" width="0.1524" layer="1"/>
<wire x1="30.5175875" y1="15.5575" x2="32.385" y2="15.5575" width="0.1524" layer="1"/>
<wire x1="33.2105" y1="14.732" x2="33.2105" y2="12.6705" width="0.1524" layer="1"/>
<wire x1="29.1148" y1="22.7203" x2="29.4068" y2="23.0123" width="0.1524" layer="1"/>
<wire x1="29.4068" y1="23.0123" x2="29.4068" y2="23.4499875" width="0.1524" layer="1"/>
<wire x1="33.8709" y1="25.67803125" x2="33.8709" y2="28.23346875" width="0.1524" layer="1"/>
<wire x1="32.76736875" y1="29.337" x2="32.7025" y2="29.337" width="0.1524" layer="1"/>
<wire x1="33.8709" y1="28.23346875" x2="32.76736875" y2="29.337" width="0.1524" layer="1"/>
<wire x1="29.4068" y1="23.4499875" x2="29.7837125" y2="23.8269" width="0.1524" layer="1"/>
<wire x1="29.7837125" y1="23.8269" x2="32.01976875" y2="23.8269" width="0.1524" layer="1"/>
<wire x1="32.01976875" y1="23.8269" x2="33.8709" y2="25.67803125" width="0.1524" layer="1"/>
<wire x1="13.335" y1="15.72" x2="13.335" y2="5.715" width="0.1524" layer="1"/>
<wire x1="25.24896875" y1="5.0546" x2="25.27436875" y2="5.08" width="0.1524" layer="1"/>
<wire x1="13.9954" y1="5.0546" x2="25.24896875" y2="5.0546" width="0.1524" layer="1"/>
<wire x1="13.335" y1="5.715" x2="13.9954" y2="5.0546" width="0.1524" layer="1"/>
<wire x1="25.908" y1="5.08" x2="27.305" y2="6.477" width="0.1524" layer="1"/>
<wire x1="25.27436875" y1="5.08" x2="25.908" y2="5.08" width="0.1524" layer="1"/>
</signal>
<signal name="RX">
<contactref element="BOTTOM" pad="6"/>
<contactref element="ATMEGA" pad="31"/>
<wire x1="25.2222" y1="16.4277" x2="26.3525" y2="16.4277" width="0.1524" layer="1"/>
<wire x1="26.3525" y1="16.4277" x2="26.67" y2="16.1102" width="0.1524" layer="1"/>
<wire x1="24.4475" y1="13.335" x2="24.4475" y2="6.5405" width="0.1524" layer="1"/>
<wire x1="24.4475" y1="6.5405" x2="24.765" y2="6.223" width="0.1524" layer="1"/>
<wire x1="26.67" y1="16.1102" x2="26.67" y2="15.5575" width="0.1524" layer="1"/>
<wire x1="26.67" y1="15.5575" x2="24.4475" y2="13.335" width="0.1524" layer="1"/>
</signal>
<signal name="TX">
<contactref element="BOTTOM" pad="5"/>
<contactref element="ATMEGA" pad="30"/>
<wire x1="22.3077" y1="17.2277" x2="21.9075" y2="16.8275" width="0.1524" layer="1"/>
<wire x1="21.9075" y1="16.8275" x2="21.9075" y2="6.7945" width="0.1524" layer="1"/>
<wire x1="21.9075" y1="6.7945" x2="22.225" y2="6.477" width="0.1524" layer="1"/>
<wire x1="25.2222" y1="17.2277" x2="22.3077" y2="17.2277" width="0.1524" layer="1"/>
</signal>
<signal name="SCL">
<contactref element="BOTTOM" pad="4"/>
<contactref element="ATMEGA" pad="28"/>
<contactref element="RTC" pad="16"/>
<contactref element="R3" pad="1"/>
<wire x1="25.2222" y1="18.8277" x2="25.127" y2="18.7325" width="0.1524" layer="1"/>
<wire x1="25.127" y1="18.7325" x2="18.0975" y2="18.7325" width="0.1524" layer="1"/>
<wire x1="18.0975" y1="18.7325" x2="17.145" y2="17.78" width="0.1524" layer="1"/>
<wire x1="17.145" y1="17.78" x2="17.145" y2="15.72" width="0.1524" layer="1"/>
<wire x1="19.685" y1="8.8155" x2="19.685" y2="6.223" width="0.1524" layer="1"/>
<wire x1="17.6005" y1="8.8155" x2="19.685" y2="8.8155" width="0.1524" layer="1"/>
<wire x1="17.145" y1="15.72" x2="17.145" y2="9.271" width="0.1524" layer="1"/>
<wire x1="17.145" y1="9.271" x2="17.6005" y2="8.8155" width="0.1524" layer="1"/>
</signal>
<signal name="PIN1">
<contactref element="BOTTOM" pad="3"/>
<contactref element="ATMEGA" pad="23"/>
<wire x1="27.5148" y1="22.7203" x2="27.5148" y2="21.3802" width="0.1524" layer="1"/>
<wire x1="27.5148" y1="21.3802" x2="27.94" y2="20.955" width="0.1524" layer="1"/>
<via x="27.94" y="20.955" extent="1-16" drill="0.35"/>
<wire x1="27.94" y1="20.955" x2="27.94" y2="16.8275" width="0.1524" layer="16"/>
<wire x1="27.94" y1="16.8275" x2="20.6375" y2="9.525" width="0.1524" layer="16"/>
<wire x1="20.6375" y1="9.525" x2="17.78" y2="9.525" width="0.1524" layer="16"/>
<wire x1="17.78" y1="9.525" x2="17.145" y2="8.89" width="0.1524" layer="16"/>
<wire x1="17.145" y1="8.89" x2="17.145" y2="6.477" width="0.1524" layer="16"/>
</signal>
<signal name="PIN0">
<contactref element="BOTTOM" pad="2"/>
<contactref element="ATMEGA" pad="24"/>
<wire x1="26.7148" y1="22.7203" x2="26.7148" y2="20.9102" width="0.1524" layer="1"/>
<wire x1="26.7148" y1="20.9102" x2="26.9875" y2="20.6375" width="0.1524" layer="1"/>
<via x="26.9875" y="20.6375" extent="1-16" drill="0.35"/>
<wire x1="26.9875" y1="20.6375" x2="26.9875" y2="16.8275" width="0.1524" layer="16"/>
<wire x1="26.9875" y1="16.8275" x2="20.32" y2="10.16" width="0.1524" layer="16"/>
<wire x1="20.32" y1="10.16" x2="15.24" y2="10.16" width="0.1524" layer="16"/>
<wire x1="15.24" y1="10.16" x2="14.605" y2="9.525" width="0.1524" layer="16"/>
<wire x1="14.605" y1="9.525" x2="14.605" y2="6.223" width="0.1524" layer="16"/>
</signal>
<signal name="VBATT">
<contactref element="BOTTOM" pad="1"/>
</signal>
<signal name="CLKWAKE">
<contactref element="RTC" pad="3"/>
<contactref element="R4" pad="1"/>
<contactref element="ATMEGA" pad="1"/>
<contactref element="TOP" pad="2"/>
<wire x1="14.605" y1="34.0614" x2="14.605" y2="30.86905" width="0.1524" layer="1"/>
<wire x1="14.605" y1="30.86905" x2="14.5525" y2="30.81655" width="0.1524" layer="1"/>
<wire x1="14.5525" y1="30.81655" x2="14.6795" y2="30.68955" width="0.1524" layer="1"/>
<wire x1="17.4625" y1="20.32" x2="14.605" y2="23.1775" width="0.1524" layer="1"/>
<via x="17.4625" y="20.32" extent="1-16" drill="0.35"/>
<wire x1="17.4625" y1="20.32" x2="22.86" y2="14.9225" width="0.1524" layer="16"/>
<wire x1="22.86" y1="14.9225" x2="22.86" y2="13.97" width="0.1524" layer="16"/>
<via x="22.86" y="13.97" extent="1-16" drill="0.35"/>
<wire x1="22.86" y1="13.97" x2="22.86" y2="12.065" width="0.1524" layer="1"/>
<wire x1="22.86" y1="12.065" x2="23.495" y2="11.43" width="0.1524" layer="1"/>
<via x="23.495" y="11.43" extent="1-16" drill="0.35"/>
<wire x1="23.495" y1="11.43" x2="25.7175" y2="11.43" width="0.1524" layer="16"/>
<via x="25.7175" y="11.43" extent="1-16" drill="0.35"/>
<wire x1="25.7175" y1="11.43" x2="26.7148" y2="12.4273" width="0.1524" layer="1"/>
<wire x1="26.7148" y1="12.4273" x2="26.7148" y2="14.1351" width="0.1524" layer="1"/>
<wire x1="14.605" y1="23.1775" x2="14.605" y2="24.4475" width="0.1524" layer="1"/>
<wire x1="14.605" y1="24.4475" x2="14.605" y2="24.92" width="0.1524" layer="1"/>
<wire x1="14.5525" y1="30.81655" x2="14.605" y2="30.76405" width="0.1524" layer="1"/>
<wire x1="14.605" y1="30.76405" x2="14.605" y2="24.92" width="0.1524" layer="1"/>
</signal>
<signal name="CLK">
<contactref element="ATMEGA" pad="17"/>
<contactref element="TOP" pad="7"/>
<contactref element="J1" pad="3"/>
<via x="33.3375" y="22.86" extent="1-16" drill="0.35"/>
<wire x1="33.3375" y1="22.86" x2="33.1978" y2="22.7203" width="0.1524" layer="1"/>
<wire x1="33.1978" y1="22.7203" x2="32.3148" y2="22.7203" width="0.1524" layer="1"/>
<wire x1="30.1625" y1="27.43063125" x2="30.1625" y2="26.543" width="0.1524" layer="1"/>
<wire x1="31.3309" y1="28.59903125" x2="30.1625" y2="27.43063125" width="0.1524" layer="1"/>
<wire x1="31.3309" y1="30.4927" x2="31.3309" y2="28.59903125" width="0.1524" layer="1"/>
<wire x1="27.305" y1="34.5186" x2="31.3309" y2="30.4927" width="0.1524" layer="1"/>
<wire x1="30.1625" y1="26.543" x2="33.3375" y2="23.368" width="0.1524" layer="16"/>
<wire x1="33.3375" y1="23.368" x2="33.3375" y2="22.86" width="0.1524" layer="16"/>
</signal>
<signal name="RTCBATT">
<contactref element="RTC" pad="14"/>
<contactref element="U$2" pad="P$1"/>
<contactref element="U$2" pad="P$2"/>
<wire x1="10.93" y1="11.565" x2="10.93" y2="11.1125" width="0.1524" layer="16"/>
<wire x1="10.93" y1="11.1125" x2="10.93" y2="10.106" width="0.1524" layer="16"/>
<wire x1="14.605" y1="15.72" x2="14.605" y2="17.78" width="0.1524" layer="1"/>
<wire x1="14.605" y1="17.78" x2="15.5575" y2="18.7325" width="0.1524" layer="1"/>
<wire x1="15.5575" y1="18.7325" x2="15.5575" y2="20.32" width="0.1524" layer="1"/>
<via x="15.5575" y="20.32" extent="1-16" drill="0.35"/>
<wire x1="10.93" y1="24.9475" x2="10.93" y2="30.534" width="0.1524" layer="16"/>
<wire x1="15.5575" y1="20.32" x2="14.8336" y2="21.0439" width="0.1524" layer="16"/>
<wire x1="14.8336" y1="21.0439" x2="14.8336" y2="21.72981875" width="0.1524" layer="16"/>
<wire x1="14.8336" y1="21.72981875" x2="12.83981875" y2="23.7236" width="0.1524" layer="16"/>
<wire x1="12.83981875" y1="23.7236" x2="12.1539" y2="23.7236" width="0.1524" layer="16"/>
<wire x1="12.1539" y1="23.7236" x2="10.93" y2="24.9475" width="0.1524" layer="16"/>
<wire x1="15.5575" y1="20.32" x2="14.8336" y2="19.5961" width="0.1524" layer="16"/>
<wire x1="14.8336" y1="19.5961" x2="14.8336" y2="18.91018125" width="0.1524" layer="16"/>
<wire x1="14.8336" y1="18.91018125" x2="12.83981875" y2="16.9164" width="0.1524" layer="16"/>
<wire x1="10.93" y1="15.6925" x2="10.93" y2="11.565" width="0.1524" layer="16"/>
<wire x1="12.83981875" y1="16.9164" x2="12.1539" y2="16.9164" width="0.1524" layer="16"/>
<wire x1="12.1539" y1="16.9164" x2="10.93" y2="15.6925" width="0.1524" layer="16"/>
</signal>
<signal name="RST">
<contactref element="J1" pad="5"/>
<contactref element="ATMEGA" pad="29"/>
<contactref element="R1" pad="2"/>
<wire x1="24.4475" y1="27.9925" x2="26.0858" y2="26.3542" width="0.1524" layer="1"/>
<wire x1="26.0985" y1="18.0277" x2="25.2222" y2="18.0277" width="0.1524" layer="1"/>
<wire x1="26.0858" y1="18.0404" x2="26.0985" y2="18.0277" width="0.1524" layer="1"/>
<wire x1="26.0858" y1="26.3542" x2="26.0858" y2="18.0404" width="0.1524" layer="1"/>
<wire x1="30.64646875" y1="25.3746" x2="30.67186875" y2="25.4" width="0.1524" layer="1"/>
<wire x1="26.0858" y1="26.3542" x2="27.0654" y2="25.3746" width="0.1524" layer="1"/>
<wire x1="27.0654" y1="25.3746" x2="30.64646875" y2="25.3746" width="0.1524" layer="1"/>
<wire x1="31.3055" y1="25.4" x2="32.7025" y2="26.797" width="0.1524" layer="1"/>
<wire x1="30.67186875" y1="25.4" x2="31.3055" y2="25.4" width="0.1524" layer="1"/>
</signal>
<signal name="LED">
<contactref element="ATMEGA" pad="9"/>
<contactref element="R5" pad="1"/>
<wire x1="35.8775" y1="15.8225" x2="35.6827" y2="15.6277" width="0.1524" layer="1"/>
<wire x1="35.6827" y1="15.6277" x2="33.8074" y2="15.6277" width="0.1524" layer="1"/>
</signal>
<signal name="N$2">
<contactref element="D5/PIN9" pad="A"/>
<contactref element="R5" pad="2"/>
<wire x1="34.3875" y1="11.7475" x2="35.2425" y2="11.7475" width="0.1524" layer="1"/>
<wire x1="35.2425" y1="11.7475" x2="35.8775" y2="12.3825" width="0.1524" layer="1"/>
<wire x1="35.8775" y1="12.3825" x2="35.8775" y2="14.0225" width="0.1524" layer="1"/>
</signal>
<signal name="EXTWAKE">
<contactref element="ATMEGA" pad="32"/>
<contactref element="TOP" pad="3"/>
<wire x1="25.2222" y1="15.6277" x2="25.152" y2="15.5575" width="0.1524" layer="1"/>
<wire x1="25.152" y1="15.5575" x2="23.8125" y2="15.5575" width="0.1524" layer="1"/>
<via x="23.8125" y="15.5575" extent="1-16" drill="0.35"/>
<wire x1="23.8125" y1="15.5575" x2="23.8125" y2="31.4325" width="0.1524" layer="16"/>
<wire x1="21.9075" y1="33.3375" x2="21.2725" y2="33.3375" width="0.1524" layer="16"/>
<wire x1="21.2725" y1="33.3375" x2="20.955" y2="33.655" width="0.1524" layer="16"/>
<wire x1="20.955" y1="33.655" x2="20.955" y2="34.6075" width="0.1524" layer="16"/>
<wire x1="20.0025" y1="35.56" x2="18.1864" y2="35.56" width="0.1524" layer="16"/>
<wire x1="18.1864" y1="35.56" x2="17.145" y2="34.5186" width="0.1524" layer="16"/>
<wire x1="23.8125" y1="31.4325" x2="21.9075" y2="33.3375" width="0.1524" layer="16"/>
<wire x1="20.955" y1="34.6075" x2="20.0025" y2="35.56" width="0.1524" layer="16"/>
</signal>
</signals>
<mfgpreviewcolors>
<mfgpreviewcolor name="soldermaskcolor" color="0xC8008000"/>
<mfgpreviewcolor name="silkscreencolor" color="0xFFFEFEFE"/>
<mfgpreviewcolor name="backgroundcolor" color="0xFF282828"/>
<mfgpreviewcolor name="coppercolor" color="0xFFFFBF00"/>
<mfgpreviewcolor name="substratecolor" color="0xFF786E46"/>
</mfgpreviewcolors>
</board>
</drawing>
<compatibility>
<note version="8.2" severity="warning">
Since Version 8.2, EAGLE supports online libraries. The ids
of those online libraries will not be understood (or retained)
with this version.
</note>
<note version="8.3" severity="warning">
Since Version 8.3, EAGLE supports URNs for individual library
assets (packages, symbols, and devices). The URNs of those assets
will not be understood (or retained) with this version.
</note>
<note version="8.3" severity="warning">
Since Version 8.3, EAGLE supports the association of 3D packages
with devices in libraries, schematics, and board files. Those 3D
packages will not be understood (or retained) with this version.
</note>
</compatibility>
</eagle>
